EESchema Schematic File Version 4
LIBS:Multiplexor-DVM-Cal-cache
EELAYER 26 0
EELAYER END
$Descr A4 11693 8268
encoding utf-8
Sheet 3 4
Title "Funcion corriente con corrección de cortocircuito"
Date "2022-02-19"
Rev "0"
Comp "INTI"
Comment1 "Falta decider reles de corriente y resistores"
Comment2 ""
Comment3 ""
Comment4 ""
$EndDescr
Wire Wire Line
	6500 1400 6500 1500
Wire Wire Line
	6500 1500 6900 1500
Wire Wire Line
	6900 1400 6900 1500
Wire Wire Line
	6850 2450 6850 2550
Wire Wire Line
	6850 2550 6450 2550
Wire Wire Line
	6450 2550 6450 2450
Wire Wire Line
	6800 2850 6800 2700
Wire Wire Line
	6500 3450 6500 3600
Wire Wire Line
	6500 3600 6900 3600
Wire Wire Line
	6900 3600 6900 3450
Wire Wire Line
	9150 3150 9500 3150
Wire Wire Line
	10250 3050 10250 3450
Wire Wire Line
	10250 3450 10100 3450
Wire Wire Line
	10100 3050 10250 3050
Wire Wire Line
	9500 3550 9150 3550
Wire Wire Line
	5350 7150 5350 7300
Wire Wire Line
	5350 7300 5750 7300
Wire Wire Line
	5750 7300 5750 7150
Wire Wire Line
	5650 6550 5650 6350
$Comp
L HF165FD5-HY1TF:HF165FD_5-HY1TF K20
U 1 1 624FD78C
P 7550 5900
F 0 "K20" V 6983 5900 50  0000 C CNN
F 1 "HF165FD_5-HY1TF" V 7074 5900 50  0000 C CNN
F 2 "Multiplexor-DVM-Cal:HF165FD5HY1TF" H 8650 5850 50  0001 C CNN
F 3 "http://gfinder.findernet.com/assets/Series/355/S32EN.pdf" H 7550 5900 50  0001 C CNN
	1    7550 5900
	0    1    1    0   
$EndComp
$Comp
L TX2-L2-5V:TX2-L2-5V K15
U 1 1 624FDE6A
P 5550 6850
F 0 "K15" H 6380 6896 50  0000 L CNN
F 1 "TX2-L2-5V" H 6380 6805 50  0000 L CNN
F 2 "Multiplexor-DVM-Cal:TX2-L2-5V" H 5350 6850 50  0001 C CNN
F 3 "" H 5350 6850 50  0001 C CNN
	1    5550 6850
	1    0    0    -1  
$EndComp
$Comp
L TX2-L2-5V:TX2-L2-5V K16
U 1 1 624FE122
P 6650 2150
F 0 "K16" H 7480 2196 50  0000 L CNN
F 1 "TX2-L2-5V" H 7480 2105 50  0000 L CNN
F 2 "Multiplexor-DVM-Cal:TX2-L2-5V" H 6450 2150 50  0001 C CNN
F 3 "" H 6450 2150 50  0001 C CNN
	1    6650 2150
	1    0    0    -1  
$EndComp
$Comp
L TX2-L2-5V:TX2-L2-5V K17
U 1 1 624FE1F8
P 6700 1100
F 0 "K17" H 7530 1146 50  0000 L CNN
F 1 "TX2-L2-5V" H 7530 1055 50  0000 L CNN
F 2 "Multiplexor-DVM-Cal:TX2-L2-5V" H 6500 1100 50  0001 C CNN
F 3 "" H 6500 1100 50  0001 C CNN
	1    6700 1100
	1    0    0    -1  
$EndComp
$Comp
L TX2-L2-5V:TX2-L2-5V K21
U 1 1 624FE756
P 9800 3350
F 0 "K21" V 8833 3350 50  0000 C CNN
F 1 "TX2-L2-5V" V 8924 3350 50  0000 C CNN
F 2 "Multiplexor-DVM-Cal:TX2-L2-5V" H 9600 3350 50  0001 C CNN
F 3 "" H 9600 3350 50  0001 C CNN
	1    9800 3350
	0    1    1    0   
$EndComp
$Comp
L JS1A-5V-F:JS1A-5V-F K12
U 1 1 62503DFB
P 2750 2600
F 0 "K12" V 2183 2600 50  0000 C CNN
F 1 "JS1A-5V-F" V 2274 2600 50  0000 C CNN
F 2 "Multiplexor-DVM-Cal:JS1A-STANDARD-HIGHPOWER_rs" H 3100 2550 50  0001 L CNN
F 3 "https://www.omron.com/ecb/products/pdf/en-g5q.pdf" H 3850 2300 50  0001 C CNN
	1    2750 2600
	0    1    1    0   
$EndComp
$Comp
L JS1A-5V-F:JS1A-5V-F K13
U 1 1 6250597D
P 2750 3650
F 0 "K13" V 2183 3650 50  0000 C CNN
F 1 "JS1A-5V-F" V 2274 3650 50  0000 C CNN
F 2 "Multiplexor-DVM-Cal:JS1A-STANDARD-HIGHPOWER_rs" H 3100 3600 50  0001 L CNN
F 3 "https://www.omron.com/ecb/products/pdf/en-g5q.pdf" H 3850 3350 50  0001 C CNN
	1    2750 3650
	0    1    1    0   
$EndComp
$Comp
L JS1A-5V-F:JS1A-5V-F K14
U 1 1 62507549
P 2750 4600
F 0 "K14" V 2183 4600 50  0000 C CNN
F 1 "JS1A-5V-F" V 2274 4600 50  0000 C CNN
F 2 "Multiplexor-DVM-Cal:JS1A-STANDARD-HIGHPOWER_rs" H 3100 4550 50  0001 L CNN
F 3 "https://www.omron.com/ecb/products/pdf/en-g5q.pdf" H 3850 4300 50  0001 C CNN
	1    2750 4600
	0    1    1    0   
$EndComp
$Comp
L HF165FD5-HY1TF:HF165FD_5-HY1TF K9
U 1 1 6254821A
P 2150 5650
F 0 "K9" V 1583 5650 50  0000 C CNN
F 1 "HF165FD_5-HY1TF" V 1650 5700 50  0000 C CNN
F 2 "Multiplexor-DVM-Cal:HF165FD5HY1TF" H 3250 5600 50  0001 C CNN
F 3 "http://gfinder.findernet.com/assets/Series/355/S32EN.pdf" H 2150 5650 50  0001 C CNN
	1    2150 5650
	0    1    1    0   
$EndComp
$Comp
L Connector_Generic:Conn_02x02_Top_Bottom J5
U 1 1 6246E114
P 3950 2800
F 0 "J5" H 4000 3017 50  0000 C CNN
F 1 "Conn_02x02_Top_Bottom" H 4000 2926 50  0000 C CNN
F 2 "Connector_PinHeader_2.54mm:PinHeader_2x02_P2.54mm_Vertical" H 3950 2800 50  0001 C CNN
F 3 "~" H 3950 2800 50  0001 C CNN
	1    3950 2800
	1    0    0    -1  
$EndComp
Wire Wire Line
	2450 6950 2600 6950
Wire Wire Line
	7850 5700 8050 5700
Wire Wire Line
	6100 1500 6100 1450
Wire Wire Line
	7300 1400 7300 1450
Wire Wire Line
	6050 2500 6050 2450
Wire Wire Line
	7250 2450 7250 2500
Wire Wire Line
	9500 2750 9400 2750
Wire Wire Line
	9500 3950 9450 3950
$Comp
L Connector_Generic:Conn_02x02_Top_Bottom J6
U 1 1 62CE34F0
P 3950 3850
F 0 "J6" H 4000 4067 50  0000 C CNN
F 1 "Conn_02x02_Top_Bottom" H 4000 3976 50  0000 C CNN
F 2 "Connector_PinHeader_2.54mm:PinHeader_2x02_P2.54mm_Vertical" H 3950 3850 50  0001 C CNN
F 3 "~" H 3950 3850 50  0001 C CNN
	1    3950 3850
	1    0    0    -1  
$EndComp
Wire Wire Line
	6100 3600 6100 3550
Wire Wire Line
	3200 2400 3200 2450
Wire Wire Line
	3050 2400 3200 2400
Wire Wire Line
	3250 3450 3250 3500
Wire Wire Line
	3250 4400 3250 4450
Wire Wire Line
	2450 5450 2600 5450
Wire Wire Line
	2600 6950 2600 7050
Wire Wire Line
	2450 5950 3450 5950
Wire Wire Line
	6100 2800 6100 2850
Wire Wire Line
	7300 2800 7300 2850
Wire Wire Line
	7250 1850 7250 1800
Wire Wire Line
	6100 750  6100 800 
Wire Wire Line
	6800 650  9150 650 
Wire Wire Line
	6800 650  6800 800 
Wire Wire Line
	7300 750  7300 800 
Text GLabel 4100 2450 0    50   Input ~ 0
AuxLow
Text GLabel 4150 3400 0    50   Input ~ 0
AuxLow
$Comp
L Connector_Generic:Conn_02x02_Top_Bottom J3
U 1 1 6282E60D
P 3250 7000
F 0 "J3" H 3300 7217 50  0000 C CNN
F 1 "Conn_02x02_Top_Bottom" H 3300 7126 50  0000 C CNN
F 2 "Coonector Molex:Molex_KK-41791-04_04x3.96mm_Straight" H 3250 7000 50  0001 C CNN
F 3 "~" H 3250 7000 50  0001 C CNN
	1    3250 7000
	1    0    0    -1  
$EndComp
Wire Wire Line
	2800 7450 2800 7000
Wire Wire Line
	2800 7000 3050 7000
Wire Wire Line
	2800 7450 2450 7450
Wire Wire Line
	6950 6100 7250 6100
Wire Wire Line
	6050 1800 6050 1850
Text GLabel 3450 7650 2    50   Input ~ 0
AuxLow
Wire Wire Line
	3050 2800 3750 2800
Wire Wire Line
	3050 3850 3750 3850
NoConn ~ 6600 2850
NoConn ~ 7000 2850
NoConn ~ 6550 1850
NoConn ~ 6950 1850
NoConn ~ 6600 800 
NoConn ~ 7000 800 
$Comp
L HF165FD5-HY1TF:HF165FD_5-HY1TF K10
U 1 1 6251664A
P 2150 7150
F 0 "K10" V 1583 7150 50  0000 C CNN
F 1 "HF165FD_5-HY1TF" V 1674 7150 50  0000 C CNN
F 2 "Multiplexor-DVM-Cal:HF165FD5HY1TF" H 3250 7100 50  0001 C CNN
F 3 "http://gfinder.findernet.com/assets/Series/355/S32EN.pdf" H 2150 7150 50  0001 C CNN
	1    2150 7150
	0    1    1    0   
$EndComp
Text GLabel 6950 6100 0    50   Input ~ 0
AuxLow
Wire Wire Line
	7850 6200 9150 6200
Text Notes 7800 5550 0    50   ~ 0
Conexionde LOW de alta corriente
Text Notes 5800 6300 0    50   ~ 0
Conexión de LOW de señal
NoConn ~ 5850 6550
NoConn ~ 5450 6550
NoConn ~ 10100 3250
NoConn ~ 10100 3650
Wire Wire Line
	6750 1700 9150 1700
Wire Wire Line
	6750 1700 6750 1850
Connection ~ 9150 1700
Wire Wire Line
	9150 2700 6800 2700
Wire Wire Line
	6400 2700 6400 2850
Wire Wire Line
	6350 1700 6350 1850
Wire Wire Line
	6400 650  5100 650 
Wire Wire Line
	6400 650  6400 800 
Wire Wire Line
	9150 6350 9150 6200
Wire Wire Line
	7300 3600 7300 3550
$Comp
L TX2-L2-5V:TX2-L2-5V K18
U 1 1 624FDFEB
P 6700 3150
F 0 "K18" H 7530 3196 50  0000 L CNN
F 1 "TX2-L2-5V" H 7530 3105 50  0000 L CNN
F 2 "Multiplexor-DVM-Cal:TX2-L2-5V" H 6500 3150 50  0001 C CNN
F 3 "" H 6500 3150 50  0001 C CNN
	1    6700 3150
	1    0    0    -1  
$EndComp
Connection ~ 9150 2700
Wire Wire Line
	9150 2700 9150 2950
Wire Wire Line
	9150 1700 9150 2700
Wire Wire Line
	6850 4250 6850 4100
Wire Wire Line
	6550 4850 6550 5000
Wire Wire Line
	6550 5000 6950 5000
Wire Wire Line
	6950 5000 6950 4850
Wire Wire Line
	6150 5000 6150 4950
Wire Wire Line
	6150 4200 6150 4250
Wire Wire Line
	7350 4200 7350 4250
NoConn ~ 6650 4250
NoConn ~ 7050 4250
Wire Wire Line
	6450 4100 6450 4250
$Comp
L TX2-L2-5V:TX2-L2-5V K19
U 1 1 627D6145
P 6750 4550
F 0 "K19" H 7580 4596 50  0000 L CNN
F 1 "TX2-L2-5V" H 7580 4505 50  0000 L CNN
F 2 "Multiplexor-DVM-Cal:TX2-L2-5V" H 6550 4550 50  0001 C CNN
F 3 "" H 6550 4550 50  0001 C CNN
	1    6750 4550
	1    0    0    -1  
$EndComp
Connection ~ 9150 2950
Wire Wire Line
	9150 2950 9150 3150
Wire Wire Line
	9750 5300 5300 5300
Wire Wire Line
	3450 5300 3450 5950
Text HLabel 6300 5450 0    50   Input ~ 0
CurrentLowDirect
Text HLabel 2400 4000 0    50   Input ~ 0
CurrentHighDirect1
Text HLabel 1250 5050 0    50   Input ~ 0
CurrentHighDirect2
Text HLabel 2450 3050 0    50   Input ~ 0
Current3
Text HLabel 2450 2050 0    50   Input ~ 0
Current2
Text HLabel 5200 6000 2    50   Input ~ 0
CurrentLowSignalSet
Text HLabel 6700 6450 2    50   Input ~ 0
CurrentLowSignalReset
Text HLabel 8300 4200 2    50   Input ~ 0
ResetCurrent4
Text HLabel 5350 4200 0    50   Input ~ 0
SetCurrent4
Text HLabel 8300 2800 2    50   Input ~ 0
ResetCurrent3
Text HLabel 5350 2800 0    50   Input ~ 0
SetCurrent3
Text HLabel 5300 1800 0    50   Input ~ 0
SetCurrent2
Text HLabel 8300 1800 2    50   Input ~ 0
ResetCurrent2
Text HLabel 8250 750  2    50   Input ~ 0
ResetCurrent1
Text HLabel 5350 750  0    50   Input ~ 0
SetCurrent1
Text HLabel 900  3850 0    50   Input ~ 0
AuxHigh
Text HLabel 950  5850 0    50   Input ~ 0
20A
Text HLabel 9950 1700 2    50   Input ~ 0
FrontInputHigh
Text HLabel 10650 2750 2    50   Input ~ 0
SetFrontZero
Text HLabel 10550 3950 2    50   Input ~ 0
ResetFrontZero
Text HLabel 9750 5300 2    50   Input ~ 0
FrontCurrent
Text HLabel 9800 6350 2    50   Input ~ 0
FrontInputLow
Text HLabel 950  7650 0    50   Input ~ 0
AuxLow
Wire Wire Line
	9150 650  9150 1700
Wire Wire Line
	9950 1700 9150 1700
$Comp
L power:GND #PWR042
U 1 1 624BC0D0
P 7300 1500
F 0 "#PWR042" H 7300 1250 50  0001 C CNN
F 1 "GND" H 7300 1350 50  0000 C CNN
F 2 "" H 7300 1500 50  0001 C CNN
F 3 "" H 7300 1500 50  0001 C CNN
	1    7300 1500
	1    0    0    -1  
$EndComp
$Comp
L power:GND #PWR036
U 1 1 624BC0FD
P 6100 1500
F 0 "#PWR036" H 6100 1250 50  0001 C CNN
F 1 "GND" H 6100 1350 50  0000 C CNN
F 2 "" H 6100 1500 50  0001 C CNN
F 3 "" H 6100 1500 50  0001 C CNN
	1    6100 1500
	1    0    0    -1  
$EndComp
$Comp
L power:GND #PWR035
U 1 1 624BC12A
P 6050 2500
F 0 "#PWR035" H 6050 2250 50  0001 C CNN
F 1 "GND" H 6050 2350 50  0000 C CNN
F 2 "" H 6050 2500 50  0001 C CNN
F 3 "" H 6050 2500 50  0001 C CNN
	1    6050 2500
	1    0    0    -1  
$EndComp
$Comp
L power:GND #PWR041
U 1 1 624BC157
P 7250 2500
F 0 "#PWR041" H 7250 2250 50  0001 C CNN
F 1 "GND" H 7250 2350 50  0000 C CNN
F 2 "" H 7250 2500 50  0001 C CNN
F 3 "" H 7250 2500 50  0001 C CNN
	1    7250 2500
	1    0    0    -1  
$EndComp
$Comp
L power:GND #PWR047
U 1 1 624BC184
P 9450 4200
F 0 "#PWR047" H 9450 3950 50  0001 C CNN
F 1 "GND" H 9455 4027 50  0000 C CNN
F 2 "" H 9450 4200 50  0001 C CNN
F 3 "" H 9450 4200 50  0001 C CNN
	1    9450 4200
	1    0    0    -1  
$EndComp
$Comp
L power:GND #PWR045
U 1 1 624BC1C2
P 8050 5800
F 0 "#PWR045" H 8050 5550 50  0001 C CNN
F 1 "GND" H 8055 5627 50  0000 C CNN
F 2 "" H 8050 5800 50  0001 C CNN
F 3 "" H 8050 5800 50  0001 C CNN
	1    8050 5800
	1    0    0    -1  
$EndComp
$Comp
L power:GND #PWR044
U 1 1 624BC1EF
P 7350 5000
F 0 "#PWR044" H 7350 4750 50  0001 C CNN
F 1 "GND" H 7355 4827 50  0000 C CNN
F 2 "" H 7350 5000 50  0001 C CNN
F 3 "" H 7350 5000 50  0001 C CNN
	1    7350 5000
	1    0    0    -1  
$EndComp
$Comp
L power:GND #PWR038
U 1 1 624BC21C
P 6150 5000
F 0 "#PWR038" H 6150 4750 50  0001 C CNN
F 1 "GND" H 6155 4827 50  0000 C CNN
F 2 "" H 6150 5000 50  0001 C CNN
F 3 "" H 6150 5000 50  0001 C CNN
	1    6150 5000
	1    0    0    -1  
$EndComp
$Comp
L power:GND #PWR029
U 1 1 624BC249
P 2600 7050
F 0 "#PWR029" H 2600 6800 50  0001 C CNN
F 1 "GND" H 2605 6877 50  0000 C CNN
F 2 "" H 2600 7050 50  0001 C CNN
F 3 "" H 2600 7050 50  0001 C CNN
	1    2600 7050
	1    0    0    -1  
$EndComp
$Comp
L power:GND #PWR028
U 1 1 624BC287
P 2600 5550
F 0 "#PWR028" H 2600 5300 50  0001 C CNN
F 1 "GND" H 2605 5377 50  0000 C CNN
F 2 "" H 2600 5550 50  0001 C CNN
F 3 "" H 2600 5550 50  0001 C CNN
	1    2600 5550
	1    0    0    -1  
$EndComp
$Comp
L power:GND #PWR033
U 1 1 624BC2B4
P 3250 4450
F 0 "#PWR033" H 3250 4200 50  0001 C CNN
F 1 "GND" H 3255 4277 50  0000 C CNN
F 2 "" H 3250 4450 50  0001 C CNN
F 3 "" H 3250 4450 50  0001 C CNN
	1    3250 4450
	1    0    0    -1  
$EndComp
$Comp
L power:GND #PWR032
U 1 1 624BC2E1
P 3250 3500
F 0 "#PWR032" H 3250 3250 50  0001 C CNN
F 1 "GND" H 3255 3327 50  0000 C CNN
F 2 "" H 3250 3500 50  0001 C CNN
F 3 "" H 3250 3500 50  0001 C CNN
	1    3250 3500
	1    0    0    -1  
$EndComp
$Comp
L power:GND #PWR031
U 1 1 624BC30E
P 3200 2450
F 0 "#PWR031" H 3200 2200 50  0001 C CNN
F 1 "GND" H 3205 2277 50  0000 C CNN
F 2 "" H 3200 2450 50  0001 C CNN
F 3 "" H 3200 2450 50  0001 C CNN
	1    3200 2450
	1    0    0    -1  
$EndComp
$Comp
L power:GND #PWR039
U 1 1 624BC4A7
P 6150 7250
F 0 "#PWR039" H 6150 7000 50  0001 C CNN
F 1 "GND" H 6155 7077 50  0000 C CNN
F 2 "" H 6150 7250 50  0001 C CNN
F 3 "" H 6150 7250 50  0001 C CNN
	1    6150 7250
	1    0    0    -1  
$EndComp
$Comp
L power:GND #PWR034
U 1 1 624BC4D4
P 4950 7250
F 0 "#PWR034" H 4950 7000 50  0001 C CNN
F 1 "GND" H 4955 7077 50  0000 C CNN
F 2 "" H 4950 7250 50  0001 C CNN
F 3 "" H 4950 7250 50  0001 C CNN
	1    4950 7250
	1    0    0    -1  
$EndComp
$Comp
L power:GND #PWR043
U 1 1 624BC5AD
P 7300 3600
F 0 "#PWR043" H 7300 3350 50  0001 C CNN
F 1 "GND" H 7300 3450 50  0000 C CNN
F 2 "" H 7300 3600 50  0001 C CNN
F 3 "" H 7300 3600 50  0001 C CNN
	1    7300 3600
	1    0    0    -1  
$EndComp
$Comp
L power:GND #PWR037
U 1 1 624BC5DA
P 6100 3600
F 0 "#PWR037" H 6100 3350 50  0001 C CNN
F 1 "GND" H 6100 3450 50  0000 C CNN
F 2 "" H 6100 3600 50  0001 C CNN
F 3 "" H 6100 3600 50  0001 C CNN
	1    6100 3600
	1    0    0    -1  
$EndComp
$Comp
L power:GND #PWR046
U 1 1 624BC67E
P 9400 2800
F 0 "#PWR046" H 9400 2550 50  0001 C CNN
F 1 "GND" H 9405 2627 50  0000 C CNN
F 2 "" H 9400 2800 50  0001 C CNN
F 3 "" H 9400 2800 50  0001 C CNN
	1    9400 2800
	1    0    0    -1  
$EndComp
$Comp
L 1n4001:1N4007 D17
U 1 1 62E546DA
P 5450 1100
F 0 "D17" V 5404 1179 50  0000 L CNN
F 1 "1N4007" V 5495 1179 50  0000 L CNN
F 2 "Diode_THT:D_DO-41_SOD81_P10.16mm_Horizontal" H 5450 925 50  0001 C CNN
F 3 "http://www.vishay.com/docs/88503/1n4001.pdf" H 5450 1100 50  0001 C CNN
	1    5450 1100
	0    1    1    0   
$EndComp
Wire Wire Line
	5450 1250 5450 1450
Wire Wire Line
	5450 1450 6100 1450
Connection ~ 6100 1450
Wire Wire Line
	6100 1450 6100 1400
$Comp
L 1n4001:1N4007 D22
U 1 1 62E6389C
P 8100 1100
F 0 "D22" V 8054 1179 50  0000 L CNN
F 1 "1N4007" V 8145 1179 50  0000 L CNN
F 2 "Diode_THT:D_DO-41_SOD81_P10.16mm_Horizontal" H 8100 925 50  0001 C CNN
F 3 "http://www.vishay.com/docs/88503/1n4001.pdf" H 8100 1100 50  0001 C CNN
	1    8100 1100
	0    1    1    0   
$EndComp
Wire Wire Line
	8100 1450 7300 1450
Connection ~ 7300 1450
Wire Wire Line
	7300 1450 7300 1500
Wire Wire Line
	8100 1250 8100 1450
$Comp
L 1n4001:1N4007 D18
U 1 1 62E7C93A
P 5450 3150
F 0 "D18" V 5404 3229 50  0000 L CNN
F 1 "1N4007" V 5495 3229 50  0000 L CNN
F 2 "Diode_THT:D_DO-41_SOD81_P10.16mm_Horizontal" H 5450 2975 50  0001 C CNN
F 3 "http://www.vishay.com/docs/88503/1n4001.pdf" H 5450 3150 50  0001 C CNN
	1    5450 3150
	0    1    1    0   
$EndComp
Wire Wire Line
	5450 3300 5450 3550
Wire Wire Line
	5450 3550 6100 3550
Connection ~ 6100 3550
Wire Wire Line
	6100 3550 6100 3450
$Comp
L 1n4001:1N4007 D24
U 1 1 62E96BBE
P 8100 3150
F 0 "D24" V 8054 3229 50  0000 L CNN
F 1 "1N4007" V 8145 3229 50  0000 L CNN
F 2 "Diode_THT:D_DO-41_SOD81_P10.16mm_Horizontal" H 8100 2975 50  0001 C CNN
F 3 "http://www.vishay.com/docs/88503/1n4001.pdf" H 8100 3150 50  0001 C CNN
	1    8100 3150
	0    1    1    0   
$EndComp
Connection ~ 7300 3550
Wire Wire Line
	7300 3550 7300 3450
$Comp
L 1n4001:1N4007 D19
U 1 1 62EAA784
P 5500 4650
F 0 "D19" V 5454 4729 50  0000 L CNN
F 1 "1N4007" V 5545 4729 50  0000 L CNN
F 2 "Diode_THT:D_DO-41_SOD81_P10.16mm_Horizontal" H 5500 4475 50  0001 C CNN
F 3 "http://www.vishay.com/docs/88503/1n4001.pdf" H 5500 4650 50  0001 C CNN
	1    5500 4650
	0    1    1    0   
$EndComp
$Comp
L 1n4001:1N4007 D25
U 1 1 62EAA822
P 8150 4550
F 0 "D25" V 8104 4629 50  0000 L CNN
F 1 "1N4007" V 8195 4629 50  0000 L CNN
F 2 "Diode_THT:D_DO-41_SOD81_P10.16mm_Horizontal" H 8150 4375 50  0001 C CNN
F 3 "http://www.vishay.com/docs/88503/1n4001.pdf" H 8150 4550 50  0001 C CNN
	1    8150 4550
	0    1    1    0   
$EndComp
Wire Wire Line
	5500 4800 5500 4950
Wire Wire Line
	5500 4950 6150 4950
Connection ~ 6150 4950
Wire Wire Line
	6150 4950 6150 4850
Connection ~ 9150 6200
Wire Wire Line
	9150 3550 9150 6200
$Comp
L 1n4001:1N4007 D20
U 1 1 62F0549D
P 6550 6650
F 0 "D20" V 6504 6729 50  0000 L CNN
F 1 "1N4007" V 6595 6729 50  0000 L CNN
F 2 "Diode_THT:D_DO-41_SOD81_P10.16mm_Horizontal" H 6550 6475 50  0001 C CNN
F 3 "http://www.vishay.com/docs/88503/1n4001.pdf" H 6550 6650 50  0001 C CNN
	1    6550 6650
	0    1    1    0   
$EndComp
$Comp
L 1n4001:1N4007 D15
U 1 1 62F1D052
P 4350 6850
F 0 "D15" V 4304 6929 50  0000 L CNN
F 1 "1N4007" V 4395 6929 50  0000 L CNN
F 2 "Diode_THT:D_DO-41_SOD81_P10.16mm_Horizontal" H 4350 6675 50  0001 C CNN
F 3 "http://www.vishay.com/docs/88503/1n4001.pdf" H 4350 6850 50  0001 C CNN
	1    4350 6850
	0    1    1    0   
$EndComp
$Comp
L 1n4001:1N4007 D27
U 1 1 62F81764
P 10450 4200
F 0 "D27" V 10404 4279 50  0000 L CNN
F 1 "1N4007" V 10495 4279 50  0000 L CNN
F 2 "Diode_THT:D_DO-41_SOD81_P10.16mm_Horizontal" H 10450 4025 50  0001 C CNN
F 3 "http://www.vishay.com/docs/88503/1n4001.pdf" H 10450 4200 50  0001 C CNN
	1    10450 4200
	0    1    1    0   
$EndComp
$Comp
L 1n4001:1N4007 D26
U 1 1 62F9DF51
P 10450 3100
F 0 "D26" V 10404 3179 50  0000 L CNN
F 1 "1N4007" V 10495 3179 50  0000 L CNN
F 2 "Diode_THT:D_DO-41_SOD81_P10.16mm_Horizontal" H 10450 2925 50  0001 C CNN
F 3 "http://www.vishay.com/docs/88503/1n4001.pdf" H 10450 3100 50  0001 C CNN
	1    10450 3100
	0    1    1    0   
$EndComp
$Comp
L 1n4001:1N4007 D21
U 1 1 62FBCEFC
P 6650 5600
F 0 "D21" V 6604 5679 50  0000 L CNN
F 1 "1N4007" V 6695 5679 50  0000 L CNN
F 2 "Diode_THT:D_DO-41_SOD81_P10.16mm_Horizontal" H 6650 5425 50  0001 C CNN
F 3 "http://www.vishay.com/docs/88503/1n4001.pdf" H 6650 5600 50  0001 C CNN
	1    6650 5600
	0    1    1    0   
$EndComp
Wire Wire Line
	8050 5700 8050 5800
$Comp
L 1n4001:1N4007 D14
U 1 1 6303BC81
P 2050 2350
F 0 "D14" V 2004 2429 50  0000 L CNN
F 1 "1N4007" V 2095 2429 50  0000 L CNN
F 2 "Diode_THT:D_DO-41_SOD81_P10.16mm_Horizontal" H 2050 2175 50  0001 C CNN
F 3 "http://www.vishay.com/docs/88503/1n4001.pdf" H 2050 2350 50  0001 C CNN
	1    2050 2350
	0    1    1    0   
$EndComp
$Comp
L 1n4001:1N4007 D12
U 1 1 6305D8FE
P 2100 3350
F 0 "D12" V 2150 3400 50  0000 L CNN
F 1 "1N4007" V 2250 3400 50  0000 L CNN
F 2 "Diode_THT:D_DO-41_SOD81_P10.16mm_Horizontal" H 2100 3175 50  0001 C CNN
F 3 "http://www.vishay.com/docs/88503/1n4001.pdf" H 2100 3350 50  0001 C CNN
	1    2100 3350
	0    1    1    0   
$EndComp
$Comp
L 1n4001:1N4007 D11
U 1 1 63080DF8
P 2000 4300
F 0 "D11" V 1954 4379 50  0000 L CNN
F 1 "1N4007" V 2045 4379 50  0000 L CNN
F 2 "Diode_THT:D_DO-41_SOD81_P10.16mm_Horizontal" H 2000 4125 50  0001 C CNN
F 3 "http://www.vishay.com/docs/88503/1n4001.pdf" H 2000 4300 50  0001 C CNN
	1    2000 4300
	0    1    1    0   
$EndComp
$Comp
L 1n4001:1N4007 D10
U 1 1 630A6F0B
P 1400 5200
F 0 "D10" V 1354 5279 50  0000 L CNN
F 1 "1N4007" V 1445 5279 50  0000 L CNN
F 2 "Diode_THT:D_DO-41_SOD81_P10.16mm_Horizontal" H 1400 5025 50  0001 C CNN
F 3 "http://www.vishay.com/docs/88503/1n4001.pdf" H 1400 5200 50  0001 C CNN
	1    1400 5200
	0    1    1    0   
$EndComp
$Comp
L 1n4001:1N4007 D9
U 1 1 630CF710
P 1350 6350
F 0 "D9" V 1304 6429 50  0000 L CNN
F 1 "1N4007" V 1395 6429 50  0000 L CNN
F 2 "Diode_THT:D_DO-41_SOD81_P10.16mm_Horizontal" H 1350 6175 50  0001 C CNN
F 3 "http://www.vishay.com/docs/88503/1n4001.pdf" H 1350 6350 50  0001 C CNN
	1    1350 6350
	0    1    1    0   
$EndComp
Text HLabel 1050 6200 0    50   Input ~ 0
Current4
$Comp
L 1n4001:1N4007 D16
U 1 1 63110480
P 5400 2150
F 0 "D16" V 5354 2229 50  0000 L CNN
F 1 "1N4007" V 5445 2229 50  0000 L CNN
F 2 "Diode_THT:D_DO-41_SOD81_P10.16mm_Horizontal" H 5400 1975 50  0001 C CNN
F 3 "http://www.vishay.com/docs/88503/1n4001.pdf" H 5400 2150 50  0001 C CNN
	1    5400 2150
	0    1    1    0   
$EndComp
$Comp
L 1n4001:1N4007 D23
U 1 1 631104FC
P 8100 2150
F 0 "D23" V 8054 2229 50  0000 L CNN
F 1 "1N4007" V 8145 2229 50  0000 L CNN
F 2 "Diode_THT:D_DO-41_SOD81_P10.16mm_Horizontal" H 8100 1975 50  0001 C CNN
F 3 "http://www.vishay.com/docs/88503/1n4001.pdf" H 8100 2150 50  0001 C CNN
	1    8100 2150
	0    1    1    0   
$EndComp
Wire Wire Line
	5400 2300 5400 2500
Wire Wire Line
	5400 2500 6050 2500
Connection ~ 6050 2500
Connection ~ 7250 2500
Connection ~ 1850 3850
Wire Wire Line
	1850 3850 1850 4800
Wire Wire Line
	1850 3850 2450 3850
Wire Wire Line
	1850 4800 2450 4800
$Comp
L power:GND #PWR027
U 1 1 63D50402
P 2050 2500
F 0 "#PWR027" H 2050 2250 50  0001 C CNN
F 1 "GND" H 2055 2327 50  0000 C CNN
F 2 "" H 2050 2500 50  0001 C CNN
F 3 "" H 2050 2500 50  0001 C CNN
	1    2050 2500
	1    0    0    -1  
$EndComp
Wire Wire Line
	3050 3450 3250 3450
$Comp
L power:GND #PWR025
U 1 1 63DCC05F
P 2100 3500
F 0 "#PWR025" H 2100 3250 50  0001 C CNN
F 1 "GND" H 2105 3327 50  0000 C CNN
F 2 "" H 2100 3500 50  0001 C CNN
F 3 "" H 2100 3500 50  0001 C CNN
	1    2100 3500
	1    0    0    -1  
$EndComp
Wire Wire Line
	3050 4400 3250 4400
$Comp
L power:GND #PWR024
U 1 1 63E189CA
P 2000 4450
F 0 "#PWR024" H 2000 4200 50  0001 C CNN
F 1 "GND" H 2005 4277 50  0000 C CNN
F 2 "" H 2000 4450 50  0001 C CNN
F 3 "" H 2000 4450 50  0001 C CNN
	1    2000 4450
	1    0    0    -1  
$EndComp
Wire Wire Line
	2450 4400 2400 4400
Wire Wire Line
	2400 4400 2400 4150
Wire Wire Line
	2600 5450 2600 5550
$Comp
L power:GND #PWR023
U 1 1 63F7F3D7
P 1400 5350
F 0 "#PWR023" H 1400 5100 50  0001 C CNN
F 1 "GND" H 1405 5177 50  0000 C CNN
F 2 "" H 1400 5350 50  0001 C CNN
F 3 "" H 1400 5350 50  0001 C CNN
	1    1400 5350
	1    0    0    -1  
$EndComp
Wire Wire Line
	1800 5450 1800 5050
Wire Wire Line
	1800 5450 1850 5450
Wire Wire Line
	1850 6950 1750 6950
$Comp
L power:GND #PWR022
U 1 1 640610B9
P 1350 6500
F 0 "#PWR022" H 1350 6250 50  0001 C CNN
F 1 "GND" H 1355 6327 50  0000 C CNN
F 2 "" H 1350 6500 50  0001 C CNN
F 3 "" H 1350 6500 50  0001 C CNN
	1    1350 6500
	1    0    0    -1  
$EndComp
Wire Wire Line
	1750 6950 1750 6200
Wire Wire Line
	950  5850 1200 5850
Wire Wire Line
	1200 7350 1200 5850
Connection ~ 1200 5850
Wire Wire Line
	1200 7350 1850 7350
Wire Wire Line
	1200 5850 1850 5850
Wire Notes Line
	2750 5000 1100 5000
Wire Notes Line
	1100 5000 1100 7600
Wire Notes Line
	1100 7600 2750 7600
Wire Notes Line
	2750 5000 2750 7600
Wire Wire Line
	5350 750  5450 750 
Wire Wire Line
	5450 750  5450 950 
Wire Wire Line
	5450 750  6100 750 
Connection ~ 5450 750 
Connection ~ 8100 750 
Wire Wire Line
	8100 750  8250 750 
Wire Wire Line
	8100 750  8100 950 
Wire Wire Line
	7300 750  8100 750 
Wire Wire Line
	9000 2950 9000 4100
Wire Wire Line
	9000 2950 9150 2950
Wire Wire Line
	6850 4100 9000 4100
Wire Wire Line
	8100 3550 8100 3300
Wire Wire Line
	7300 3550 8100 3550
Wire Wire Line
	7300 2800 8100 2800
Wire Wire Line
	8100 3000 8100 2800
Connection ~ 8100 2800
Wire Wire Line
	8100 2800 8300 2800
Wire Wire Line
	8100 2500 8100 2300
Wire Wire Line
	8100 1800 8100 2000
Connection ~ 8100 1800
Wire Wire Line
	8100 1800 8300 1800
Wire Wire Line
	7250 1800 8100 1800
Wire Wire Line
	7250 2500 8100 2500
Wire Wire Line
	7350 4200 8150 4200
Wire Wire Line
	7350 4850 7350 4950
Wire Wire Line
	8150 4400 8150 4200
Connection ~ 8150 4200
Wire Wire Line
	8150 4200 8300 4200
Wire Wire Line
	8150 4700 8150 4950
Wire Wire Line
	8150 4950 7350 4950
Connection ~ 7350 4950
Wire Wire Line
	7350 4950 7350 5000
$Comp
L power:GND #PWR040
U 1 1 642AD9F4
P 6650 5750
F 0 "#PWR040" H 6650 5500 50  0001 C CNN
F 1 "GND" H 6655 5577 50  0000 C CNN
F 2 "" H 6650 5750 50  0001 C CNN
F 3 "" H 6650 5750 50  0001 C CNN
	1    6650 5750
	1    0    0    -1  
$EndComp
Wire Wire Line
	7050 5700 7050 5450
Wire Wire Line
	7050 5700 7250 5700
Wire Wire Line
	6150 6450 6150 6550
Wire Wire Line
	9400 2800 9400 2750
Wire Wire Line
	10100 2750 10450 2750
$Comp
L power:GND #PWR049
U 1 1 643ED032
P 10450 3350
F 0 "#PWR049" H 10450 3100 50  0001 C CNN
F 1 "GND" H 10455 3177 50  0000 C CNN
F 2 "" H 10450 3350 50  0001 C CNN
F 3 "" H 10450 3350 50  0001 C CNN
	1    10450 3350
	1    0    0    -1  
$EndComp
Wire Wire Line
	10100 3950 10450 3950
Wire Wire Line
	9450 4200 9450 3950
Wire Wire Line
	10450 2950 10450 2750
Connection ~ 10450 2750
Wire Wire Line
	10450 2750 10650 2750
Wire Wire Line
	10450 3350 10450 3250
Wire Wire Line
	10450 4050 10450 3950
Connection ~ 10450 3950
Wire Wire Line
	10450 3950 10550 3950
$Comp
L power:GND #PWR050
U 1 1 6443B95E
P 10450 4450
F 0 "#PWR050" H 10450 4200 50  0001 C CNN
F 1 "GND" H 10455 4277 50  0000 C CNN
F 2 "" H 10450 4450 50  0001 C CNN
F 3 "" H 10450 4450 50  0001 C CNN
	1    10450 4450
	1    0    0    -1  
$EndComp
Wire Wire Line
	10450 4450 10450 4350
Wire Wire Line
	9150 6350 9800 6350
Wire Wire Line
	5350 2800 5450 2800
Connection ~ 5450 2800
Wire Wire Line
	5450 2800 5450 3000
Wire Wire Line
	5300 1800 5400 1800
Connection ~ 5400 1800
Wire Wire Line
	5400 1800 5400 2000
Wire Wire Line
	5400 1800 6050 1800
Wire Wire Line
	5450 2800 6100 2800
Wire Wire Line
	5350 4200 5500 4200
Connection ~ 5500 4200
Wire Wire Line
	5500 4200 5500 4500
Wire Wire Line
	5500 4200 6150 4200
Wire Wire Line
	4950 6000 4950 6450
Connection ~ 4950 6450
Wire Wire Line
	4950 6450 4950 6550
Wire Wire Line
	5650 6350 9150 6350
Connection ~ 9150 6350
Wire Wire Line
	4950 6000 5200 6000
Wire Wire Line
	5250 6300 5250 6550
Wire Wire Line
	1850 2800 2450 2800
Connection ~ 1850 2800
Wire Wire Line
	1250 5050 1400 5050
Connection ~ 1400 5050
Wire Wire Line
	1400 5050 1800 5050
Wire Wire Line
	1050 6200 1350 6200
Connection ~ 1350 6200
Wire Wire Line
	1350 6200 1750 6200
Wire Wire Line
	4950 7150 4950 7200
Wire Wire Line
	4950 7200 4350 7200
Wire Wire Line
	4350 7200 4350 7000
Connection ~ 4950 7200
Wire Wire Line
	4950 7200 4950 7250
Wire Wire Line
	4350 6700 4350 6450
Wire Wire Line
	4350 6450 4950 6450
Wire Wire Line
	6150 6450 6550 6450
Wire Wire Line
	6550 6500 6550 6450
Connection ~ 6550 6450
Wire Wire Line
	6550 6450 6700 6450
Wire Wire Line
	6550 6800 6550 7200
Wire Wire Line
	6550 7200 6150 7200
Wire Wire Line
	6150 7200 6150 7150
Wire Wire Line
	6150 7250 6150 7200
Connection ~ 6150 7200
Wire Wire Line
	6300 5450 6650 5450
Connection ~ 6650 5450
Wire Wire Line
	6650 5450 7050 5450
Wire Wire Line
	4550 2100 4550 3050
Wire Wire Line
	4400 2450 4400 2800
Wire Wire Line
	4400 2800 4250 2800
Wire Wire Line
	4100 2450 4400 2450
Wire Wire Line
	3750 2900 3650 2900
Wire Wire Line
	3650 2900 3650 3050
Wire Wire Line
	3650 3050 4550 3050
Connection ~ 4550 3050
Wire Wire Line
	4550 3050 4550 4050
Wire Wire Line
	3700 4050 3700 3950
Wire Wire Line
	3700 3950 3750 3950
Wire Wire Line
	3700 4050 4550 4050
Connection ~ 4550 4050
Wire Wire Line
	4550 4050 4550 6300
Wire Wire Line
	4450 3400 4450 3850
Wire Wire Line
	4450 3850 4250 3850
Wire Wire Line
	4150 3400 4450 3400
Wire Wire Line
	950  7650 3350 7650
Wire Wire Line
	3550 7100 3550 7400
Wire Wire Line
	3550 7400 3350 7400
Wire Wire Line
	3350 7400 3350 7650
Connection ~ 3350 7650
Wire Wire Line
	3350 7650 3450 7650
Wire Wire Line
	4000 7200 3050 7200
Wire Wire Line
	3050 7200 3050 7100
Wire Wire Line
	3550 7000 4200 7000
Wire Wire Line
	4200 7000 4200 6300
Wire Wire Line
	4000 7200 4000 5900
Wire Wire Line
	4000 5900 5850 5900
Wire Wire Line
	5850 5900 5850 4100
Wire Wire Line
	5850 4100 6450 4100
Wire Wire Line
	5300 4800 5300 5300
Connection ~ 5300 5300
Wire Wire Line
	5300 5300 3450 5300
$Comp
L JS1A-5V-F:JS1A-5V-F K35
U 1 1 626B07E8
P 1350 3650
F 0 "K35" V 783 3650 50  0000 C CNN
F 1 "JS1A-5V-F" V 874 3650 50  0000 C CNN
F 2 "Multiplexor-DVM-Cal:JS1A-STANDARD-HIGHPOWER_rs" H 1700 3600 50  0001 L CNN
F 3 "https://www.omron.com/ecb/products/pdf/en-g5q.pdf" H 2450 3350 50  0001 C CNN
	1    1350 3650
	0    -1   1    0   
$EndComp
$Comp
L power:GND #PWR077
U 1 1 627320A5
P 1750 3500
F 0 "#PWR077" H 1750 3250 50  0001 C CNN
F 1 "GND" H 1755 3327 50  0000 C CNN
F 2 "" H 1750 3500 50  0001 C CNN
F 3 "" H 1750 3500 50  0001 C CNN
	1    1750 3500
	1    0    0    -1  
$EndComp
Connection ~ 4550 6300
Wire Wire Line
	4550 6300 5250 6300
Wire Wire Line
	4200 6300 4550 6300
Wire Wire Line
	5100 650  5100 1950
Wire Wire Line
	4250 3950 5250 3950
Wire Wire Line
	3050 4800 5300 4800
Wire Wire Line
	4250 2900 5150 2900
$Comp
L 1n4001:1N4007 D38
U 1 1 6282BDA3
P 850 3400
F 0 "D38" V 896 3321 50  0000 R CNN
F 1 "1N4007" V 805 3321 50  0000 R CNN
F 2 "Diode_THT:D_DO-41_SOD81_P10.16mm_Horizontal" H 850 3225 50  0001 C CNN
F 3 "http://www.vishay.com/docs/88503/1n4001.pdf" H 850 3400 50  0001 C CNN
	1    850  3400
	0    1    1    0   
$EndComp
$Comp
L power:GND #PWR076
U 1 1 6282BE3D
P 850 3550
F 0 "#PWR076" H 850 3300 50  0001 C CNN
F 1 "GND" H 855 3377 50  0000 C CNN
F 2 "" H 850 3550 50  0001 C CNN
F 3 "" H 850 3550 50  0001 C CNN
	1    850  3550
	1    0    0    -1  
$EndComp
Wire Wire Line
	2000 4150 2400 4150
Connection ~ 2400 4150
Wire Wire Line
	2400 4150 2400 4000
Wire Wire Line
	5150 1700 6350 1700
Wire Wire Line
	5150 1700 5150 2900
Wire Wire Line
	5250 2700 5250 3950
Wire Wire Line
	5250 2700 6400 2700
$Comp
L TX2-L2-5V:TX2-L2-5V K34
U 1 1 62978B22
P 1200 1650
F 0 "K34" H 1150 1050 50  0000 L CNN
F 1 "TX2-L2-5V" H 1000 1200 50  0000 L CNN
F 2 "Multiplexor-DVM-Cal:TX2-L2-5V" H 1000 1650 50  0001 C CNN
F 3 "" H 1000 1650 50  0001 C CNN
	1    1200 1650
	0    1    1    0   
$EndComp
Text HLabel 1050 3100 0    50   Input ~ 0
CurrentIN
Wire Wire Line
	4150 1950 5100 1950
Wire Wire Line
	4550 2100 3650 2100
Wire Wire Line
	4250 1850 4150 1850
Wire Wire Line
	4250 1450 4250 1850
Wire Wire Line
	3650 2100 3650 1950
Wire Wire Line
	4100 1450 4250 1450
Text GLabel 4100 1450 0    50   Input ~ 0
AuxLow
$Comp
L Connector_Generic:Conn_02x02_Top_Bottom J4
U 1 1 624752F4
P 3850 1850
F 0 "J4" H 3900 2067 50  0000 C CNN
F 1 "Conn_02x02_Top_Bottom" H 3900 1976 50  0000 C CNN
F 2 "Connector_PinHeader_2.54mm:PinHeader_2x02_P2.54mm_Vertical" H 3850 1850 50  0001 C CNN
F 3 "~" H 3850 1850 50  0001 C CNN
	1    3850 1850
	1    0    0    -1  
$EndComp
$Comp
L power:GND #PWR026
U 1 1 6266397C
P 2050 1550
F 0 "#PWR026" H 2050 1300 50  0001 C CNN
F 1 "GND" H 2055 1377 50  0000 C CNN
F 2 "" H 2050 1550 50  0001 C CNN
F 3 "" H 2050 1550 50  0001 C CNN
	1    2050 1550
	1    0    0    -1  
$EndComp
Wire Wire Line
	1850 1850 2450 1850
Wire Wire Line
	3200 1450 3200 1550
$Comp
L 1n4001:1N4007 D13
U 1 1 6300B419
P 2050 1400
F 0 "D13" V 2050 1600 50  0000 R CNN
F 1 "1N4007" V 2150 1750 50  0000 R CNN
F 2 "Diode_THT:D_DO-41_SOD81_P10.16mm_Horizontal" H 2050 1225 50  0001 C CNN
F 3 "http://www.vishay.com/docs/88503/1n4001.pdf" H 2050 1400 50  0001 C CNN
	1    2050 1400
	0    1    1    0   
$EndComp
$Comp
L power:GND #PWR030
U 1 1 624BC3E1
P 3200 1550
F 0 "#PWR030" H 3200 1300 50  0001 C CNN
F 1 "GND" H 3205 1377 50  0000 C CNN
F 2 "" H 3200 1550 50  0001 C CNN
F 3 "" H 3200 1550 50  0001 C CNN
	1    3200 1550
	1    0    0    -1  
$EndComp
Text HLabel 2450 1100 0    50   Input ~ 0
Current1
Wire Wire Line
	3050 1450 3200 1450
Wire Wire Line
	3050 1850 3650 1850
$Comp
L JS1A-5V-F:JS1A-5V-F K11
U 1 1 624FF13F
P 2750 1650
F 0 "K11" V 2183 1650 50  0000 C CNN
F 1 "JS1A-5V-F" V 2274 1650 50  0000 C CNN
F 2 "Multiplexor-DVM-Cal:JS1A-STANDARD-HIGHPOWER_rs" H 3100 1600 50  0001 L CNN
F 3 "https://www.omron.com/ecb/products/pdf/en-g5q.pdf" H 3850 1350 50  0001 C CNN
	1    2750 1650
	0    1    1    0   
$EndComp
Text HLabel 1500 1350 2    50   Input ~ 0
Guard
$Comp
L 1n4001:1N4007 D40
U 1 1 62631D0C
P 1200 2550
F 0 "D40" H 850 2650 50  0000 L CNN
F 1 "1N4007" H 1050 2650 50  0000 L CNN
F 2 "Diode_THT:D_DO-41_SOD81_P10.16mm_Horizontal" H 1200 2375 50  0001 C CNN
F 3 "http://www.vishay.com/docs/88503/1n4001.pdf" H 1200 2550 50  0001 C CNN
	1    1200 2550
	-1   0    0    1   
$EndComp
$Comp
L 1n4001:1N4007 D39
U 1 1 62631DBE
P 1200 700
F 0 "D39" H 1050 600 50  0000 L CNN
F 1 "1N4007" H 1200 600 50  0000 L CNN
F 2 "Diode_THT:D_DO-41_SOD81_P10.16mm_Horizontal" H 1200 525 50  0001 C CNN
F 3 "http://www.vishay.com/docs/88503/1n4001.pdf" H 1200 700 50  0001 C CNN
	1    1200 700 
	-1   0    0    1   
$EndComp
Wire Wire Line
	850  3250 1050 3250
Wire Wire Line
	2450 3450 2450 3200
Wire Wire Line
	2100 3200 2450 3200
Wire Wire Line
	2450 3200 2450 3050
Connection ~ 2450 3200
Wire Wire Line
	2450 2400 2450 2200
Wire Wire Line
	2050 2200 2450 2200
Connection ~ 2450 2200
Wire Wire Line
	2450 2200 2450 2050
Wire Wire Line
	2450 1450 2450 1250
Connection ~ 2450 1250
Wire Wire Line
	2450 1250 2450 1100
Wire Wire Line
	2050 1250 2450 1250
Wire Wire Line
	900  1850 900  1450
Wire Wire Line
	1050 2550 850  2550
Wire Wire Line
	850  2550 850  2250
Wire Wire Line
	850  2250 900  2250
Wire Wire Line
	1500 2250 1550 2250
Wire Wire Line
	1550 2250 1550 2550
Wire Wire Line
	1550 2550 1350 2550
Wire Wire Line
	1050 700  850  700 
Wire Wire Line
	850  700  850  1050
Wire Wire Line
	850  1050 900  1050
Wire Wire Line
	1500 1050 1550 1050
Wire Wire Line
	1550 1050 1550 700 
Wire Wire Line
	1550 700  1350 700 
$Comp
L power:GND #PWR048
U 1 1 627D1977
P 850 1050
F 0 "#PWR048" H 850 800 50  0001 C CNN
F 1 "GND" H 850 900 50  0000 C CNN
F 2 "" H 850 1050 50  0001 C CNN
F 3 "" H 850 1050 50  0001 C CNN
	1    850  1050
	1    0    0    -1  
$EndComp
Connection ~ 850  1050
$Comp
L power:GND #PWR075
U 1 1 627D19D4
P 850 2550
F 0 "#PWR075" H 850 2300 50  0001 C CNN
F 1 "GND" H 850 2400 50  0000 C CNN
F 2 "" H 850 2550 50  0001 C CNN
F 3 "" H 850 2550 50  0001 C CNN
	1    850  2550
	1    0    0    -1  
$EndComp
Connection ~ 850  2550
Text HLabel 1700 700  2    50   Input ~ 0
SetGuard
Text HLabel 1500 2800 0    50   Input ~ 0
ResetGuard
Wire Wire Line
	1500 2800 1550 2800
Wire Wire Line
	1550 2800 1550 2550
Connection ~ 1550 2550
Wire Wire Line
	1050 3250 1050 3100
Wire Wire Line
	1850 1850 1850 2800
Wire Wire Line
	1850 1750 1850 1850
Wire Wire Line
	1500 1750 1850 1750
Connection ~ 1850 1850
Wire Wire Line
	1550 700  1700 700 
Connection ~ 1550 700 
Wire Wire Line
	1850 2800 1850 3850
Wire Wire Line
	1650 3850 1850 3850
Wire Wire Line
	1650 3450 1750 3450
Wire Wire Line
	1750 3450 1750 3500
Wire Wire Line
	900  3850 1050 3850
Wire Wire Line
	1050 3450 1050 3250
Connection ~ 1050 3250
$EndSCHEMATC
