EESchema Schematic File Version 4
LIBS:Multiplexor-DVM-Cal-cache
EELAYER 26 0
EELAYER END
$Descr A4 11693 8268
encoding utf-8
Sheet 2 4
Title "Funciones: tensión, resistencia, capacidad y frecuencia"
Date "2022-02-19"
Rev "0"
Comp "INTI"
Comment1 "Falta decidir el rele de guarda"
Comment2 "Se incluye corrección de abierto y cortocircuito"
Comment3 ""
Comment4 ""
$EndDescr
Wire Wire Line
	5450 6650 5450 6750
Wire Wire Line
	5850 6750 5850 6650
Wire Wire Line
	5500 6350 5900 6350
Wire Wire Line
	2950 6750 2950 6650
Wire Wire Line
	2600 6350 3000 6350
Wire Wire Line
	2550 6650 2550 6750
Wire Wire Line
	6550 5150 6550 5050
Wire Wire Line
	6150 5150 6550 5150
Wire Wire Line
	6150 5050 6150 5150
Wire Wire Line
	3350 5150 3350 5050
Wire Wire Line
	2950 5150 3350 5150
Wire Wire Line
	2950 5050 2950 5150
Wire Wire Line
	6500 3450 6500 3350
Wire Wire Line
	6100 3450 6500 3450
Wire Wire Line
	6100 3350 6100 3450
Wire Wire Line
	2950 3350 2950 3450
Wire Wire Line
	3350 3450 3350 3350
Wire Wire Line
	2950 3450 3350 3450
$Comp
L TX2-L2-5V:TX2-L2-5V K3
U 1 1 624191AC
P 3150 3050
F 0 "K3" H 3980 3096 50  0000 L CNN
F 1 "TX2-L2-5V" H 3980 3005 50  0000 L CNN
F 2 "Multiplexor-DVM-Cal:TX2-L2-5V" H 2950 3050 50  0001 C CNN
F 3 "" H 2950 3050 50  0001 C CNN
	1    3150 3050
	1    0    0    -1  
$EndComp
$Comp
L TX2-L2-5V:TX2-L2-5V K7
U 1 1 6241A5CC
P 6300 3050
F 0 "K7" H 7130 3096 50  0000 L CNN
F 1 "TX2-L2-5V" H 7130 3005 50  0000 L CNN
F 2 "Multiplexor-DVM-Cal:TX2-L2-5V" H 6100 3050 50  0001 C CNN
F 3 "" H 6100 3050 50  0001 C CNN
	1    6300 3050
	1    0    0    -1  
$EndComp
$Comp
L TX2-L2-5V:TX2-L2-5V K4
U 1 1 6241BC92
P 3150 4750
F 0 "K4" H 3980 4796 50  0000 L CNN
F 1 "TX2-L2-5V" H 3980 4705 50  0000 L CNN
F 2 "Multiplexor-DVM-Cal:TX2-L2-5V" H 2950 4750 50  0001 C CNN
F 3 "" H 2950 4750 50  0001 C CNN
	1    3150 4750
	1    0    0    -1  
$EndComp
$Comp
L TX2-L2-5V:TX2-L2-5V K8
U 1 1 6241BD5F
P 6350 4750
F 0 "K8" H 7180 4796 50  0000 L CNN
F 1 "TX2-L2-5V" H 7180 4705 50  0000 L CNN
F 2 "Multiplexor-DVM-Cal:TX2-L2-5V" H 6150 4750 50  0001 C CNN
F 3 "" H 6150 4750 50  0001 C CNN
	1    6350 4750
	1    0    0    -1  
$EndComp
$Comp
L TX2-L2-5V:TX2-L2-5V K1
U 1 1 6241C89E
P 2750 6350
F 0 "K1" H 3580 6396 50  0000 L CNN
F 1 "TX2-L2-5V" H 3580 6305 50  0000 L CNN
F 2 "Multiplexor-DVM-Cal:TX2-L2-5V" H 2550 6350 50  0001 C CNN
F 3 "" H 2550 6350 50  0001 C CNN
	1    2750 6350
	1    0    0    -1  
$EndComp
$Comp
L TX2-L2-5V:TX2-L2-5V K5
U 1 1 6241C958
P 5650 6350
F 0 "K5" H 6480 6396 50  0000 L CNN
F 1 "TX2-L2-5V" H 6480 6305 50  0000 L CNN
F 2 "Multiplexor-DVM-Cal:TX2-L2-5V" H 5450 6350 50  0001 C CNN
F 3 "" H 5450 6350 50  0001 C CNN
	1    5650 6350
	1    0    0    -1  
$EndComp
Wire Wire Line
	5750 4350 5750 4450
Wire Wire Line
	3750 4450 3750 4300
Wire Wire Line
	5050 6050 5050 5900
$Comp
L power:GNDD #PWR08
U 1 1 625193B0
P 2550 5200
F 0 "#PWR08" H 2550 4950 50  0001 C CNN
F 1 "GNDD" H 2550 5050 50  0000 C CNN
F 2 "" H 2550 5200 50  0001 C CNN
F 3 "" H 2550 5200 50  0001 C CNN
	1    2550 5200
	1    0    0    -1  
$EndComp
$Comp
L power:GNDD #PWR012
U 1 1 6253CCCA
P 3750 5200
F 0 "#PWR012" H 3750 4950 50  0001 C CNN
F 1 "GNDD" H 3750 5050 50  0000 C CNN
F 2 "" H 3750 5200 50  0001 C CNN
F 3 "" H 3750 5200 50  0001 C CNN
	1    3750 5200
	1    0    0    -1  
$EndComp
$Comp
L power:GNDD #PWR016
U 1 1 6253CD08
P 5750 5200
F 0 "#PWR016" H 5750 4950 50  0001 C CNN
F 1 "GNDD" H 5750 5050 50  0000 C CNN
F 2 "" H 5750 5200 50  0001 C CNN
F 3 "" H 5750 5200 50  0001 C CNN
	1    5750 5200
	1    0    0    -1  
$EndComp
$Comp
L power:GNDD #PWR020
U 1 1 6253CD35
P 6950 5200
F 0 "#PWR020" H 6950 4950 50  0001 C CNN
F 1 "GNDD" H 6950 5050 50  0000 C CNN
F 2 "" H 6950 5200 50  0001 C CNN
F 3 "" H 6950 5200 50  0001 C CNN
	1    6950 5200
	1    0    0    -1  
$EndComp
$Comp
L power:GNDD #PWR017
U 1 1 6253CD8F
P 6250 6850
F 0 "#PWR017" H 6250 6600 50  0001 C CNN
F 1 "GNDD" H 6250 6700 50  0000 C CNN
F 2 "" H 6250 6850 50  0001 C CNN
F 3 "" H 6250 6850 50  0001 C CNN
	1    6250 6850
	1    0    0    -1  
$EndComp
$Comp
L power:GNDD #PWR015
U 1 1 6253CDE9
P 5700 3450
F 0 "#PWR015" H 5700 3200 50  0001 C CNN
F 1 "GNDD" H 5700 3300 50  0000 C CNN
F 2 "" H 5700 3450 50  0001 C CNN
F 3 "" H 5700 3450 50  0001 C CNN
	1    5700 3450
	1    0    0    -1  
$EndComp
$Comp
L power:GNDD #PWR019
U 1 1 6253CE16
P 6900 3450
F 0 "#PWR019" H 6900 3200 50  0001 C CNN
F 1 "GNDD" H 6900 3300 50  0000 C CNN
F 2 "" H 6900 3450 50  0001 C CNN
F 3 "" H 6900 3450 50  0001 C CNN
	1    6900 3450
	1    0    0    -1  
$EndComp
$Comp
L power:GNDD #PWR011
U 1 1 6253CE43
P 3750 3450
F 0 "#PWR011" H 3750 3200 50  0001 C CNN
F 1 "GNDD" H 3750 3300 50  0000 C CNN
F 2 "" H 3750 3450 50  0001 C CNN
F 3 "" H 3750 3450 50  0001 C CNN
	1    3750 3450
	1    0    0    -1  
$EndComp
$Comp
L power:GNDD #PWR07
U 1 1 6255B0FE
P 2550 3450
F 0 "#PWR07" H 2550 3200 50  0001 C CNN
F 1 "GNDD" H 2550 3300 50  0000 C CNN
F 2 "" H 2550 3450 50  0001 C CNN
F 3 "" H 2550 3450 50  0001 C CNN
	1    2550 3450
	1    0    0    -1  
$EndComp
Wire Wire Line
	2550 3350 2550 3400
Wire Wire Line
	3750 3350 3750 3400
Wire Wire Line
	2550 2750 2550 2700
Wire Wire Line
	5700 2750 5700 2700
Wire Wire Line
	6000 2600 6000 2750
Wire Wire Line
	6400 2400 6400 2750
NoConn ~ 3050 2750
NoConn ~ 3450 2750
NoConn ~ 6200 2750
NoConn ~ 6600 2750
NoConn ~ 3050 4450
NoConn ~ 3450 4450
NoConn ~ 6250 4450
NoConn ~ 2650 6050
NoConn ~ 3050 6050
Text HLabel 7850 900  2    50   Input ~ 0
InputHigh
Wire Wire Line
	2550 6750 2950 6750
Wire Wire Line
	5450 6750 5850 6750
$Comp
L power:GNDD #PWR05
U 1 1 6263F6C6
P 2150 6850
F 0 "#PWR05" H 2150 6600 50  0001 C CNN
F 1 "GNDD" H 2150 6700 50  0000 C CNN
F 2 "" H 2150 6850 50  0001 C CNN
F 3 "" H 2150 6850 50  0001 C CNN
	1    2150 6850
	1    0    0    -1  
$EndComp
$Comp
L power:GNDD #PWR013
U 1 1 6263F6E1
P 5050 6850
F 0 "#PWR013" H 5050 6600 50  0001 C CNN
F 1 "GNDD" H 5050 6700 50  0000 C CNN
F 2 "" H 5050 6850 50  0001 C CNN
F 3 "" H 5050 6850 50  0001 C CNN
	1    5050 6850
	1    0    0    -1  
$EndComp
Wire Wire Line
	6400 2400 7500 2400
NoConn ~ 5550 6050
NoConn ~ 5950 6050
Wire Wire Line
	6450 4450 6450 4050
Wire Wire Line
	6450 4050 7500 4050
NoConn ~ 6650 4450
Wire Wire Line
	2850 2600 2850 2750
Wire Wire Line
	2550 4350 2550 4450
Text HLabel 7500 2400 2    50   Input ~ 0
InputLow
Text HLabel 7500 4050 2    50   Input ~ 0
SenseHigh
Text HLabel 6750 5600 2    50   Input ~ 0
SenseLow
Wire Wire Line
	3250 4250 3250 4450
Wire Wire Line
	6050 4250 6050 4450
Wire Wire Line
	2850 4250 2850 4450
Wire Wire Line
	2150 5900 2150 6050
Wire Wire Line
	2450 5800 2450 6050
Wire Wire Line
	3350 5700 3350 5850
Wire Wire Line
	6750 5600 5750 5600
Wire Wire Line
	5750 5600 5750 6050
Text HLabel 1400 950  0    50   Input ~ 0
ResetNormal
Text HLabel 1400 1050 0    50   Input ~ 0
NormalHigh
Text HLabel 1350 1150 0    50   Input ~ 0
SetNormal
Text HLabel 1450 2500 0    50   Input ~ 0
ResetNormal
Text HLabel 1400 2700 0    50   Input ~ 0
SetNormal
Text HLabel 1400 2600 0    50   Input ~ 0
NormalLow
Text HLabel 1350 4150 0    50   Input ~ 0
ResetAux
Text HLabel 1300 4250 0    50   Input ~ 0
AuxHigh
Text HLabel 1250 4350 0    50   Input ~ 0
SetAux
Text HLabel 1300 5700 0    50   Input ~ 0
ResetAux
Text HLabel 1300 5900 0    50   Input ~ 0
SetAux
Wire Wire Line
	3750 2750 3750 2650
Wire Wire Line
	3250 2600 6000 2600
Connection ~ 2550 2700
Wire Wire Line
	3250 2600 3250 2700
Wire Wire Line
	3750 2500 6900 2500
Connection ~ 3750 2500
Wire Wire Line
	3250 2700 3250 2750
$Comp
L 1n4001:1N4007 D3
U 1 1 6256DE7A
P 1900 3000
F 0 "D3" V 1854 3079 50  0000 L CNN
F 1 "1N4007" V 1945 3079 50  0000 L CNN
F 2 "Diode_THT:D_DO-41_SOD81_P10.16mm_Horizontal" H 1900 2825 50  0001 C CNN
F 3 "http://www.vishay.com/docs/88503/1n4001.pdf" H 1900 3000 50  0001 C CNN
	1    1900 3000
	0    1    1    0   
$EndComp
Wire Wire Line
	1900 2850 1900 2700
Connection ~ 1900 2700
Wire Wire Line
	1900 2700 2550 2700
Wire Wire Line
	1900 3150 1900 3400
Wire Wire Line
	1900 3400 2550 3400
Connection ~ 2550 3400
Wire Wire Line
	2550 3400 2550 3450
$Comp
L 1n4001:1N4007 D7
U 1 1 62577D6B
P 4200 2900
F 0 "D7" V 4154 2979 50  0000 L CNN
F 1 "1N4007" V 4245 2979 50  0000 L CNN
F 2 "Diode_THT:D_DO-41_SOD81_P10.16mm_Horizontal" H 4200 2725 50  0001 C CNN
F 3 "http://www.vishay.com/docs/88503/1n4001.pdf" H 4200 2900 50  0001 C CNN
	1    4200 2900
	0    1    1    0   
$EndComp
Wire Wire Line
	3750 3400 4200 3400
Wire Wire Line
	4200 3400 4200 3050
Connection ~ 3750 3400
Wire Wire Line
	3750 3400 3750 3450
Wire Wire Line
	4200 2750 4200 2650
Wire Wire Line
	4200 2650 3750 2650
Connection ~ 3750 2650
Wire Wire Line
	3750 2650 3750 2500
Wire Wire Line
	3250 4250 6050 4250
Wire Wire Line
	3750 4150 6950 4150
$Comp
L 1n4001:1N4007 D4
U 1 1 626182BA
P 1950 4750
F 0 "D4" V 1904 4829 50  0000 L CNN
F 1 "1N4007" V 1995 4829 50  0000 L CNN
F 2 "Diode_THT:D_DO-41_SOD81_P10.16mm_Horizontal" H 1950 4575 50  0001 C CNN
F 3 "http://www.vishay.com/docs/88503/1n4001.pdf" H 1950 4750 50  0001 C CNN
	1    1950 4750
	0    1    1    0   
$EndComp
Connection ~ 3750 4150
Connection ~ 2550 4350
Wire Wire Line
	1950 4600 1950 4350
Connection ~ 1950 4350
Wire Wire Line
	1950 4350 2550 4350
Wire Wire Line
	3750 5050 3750 5100
Wire Wire Line
	2550 5050 2550 5150
Wire Wire Line
	1950 4900 1950 5150
Wire Wire Line
	1950 5150 2550 5150
Connection ~ 2550 5150
Wire Wire Line
	2550 5150 2550 5200
$Comp
L 1n4001:1N4007 D8
U 1 1 6264DDF2
P 4200 4600
F 0 "D8" V 4154 4679 50  0000 L CNN
F 1 "1N4007" V 4245 4679 50  0000 L CNN
F 2 "Diode_THT:D_DO-41_SOD81_P10.16mm_Horizontal" H 4200 4425 50  0001 C CNN
F 3 "http://www.vishay.com/docs/88503/1n4001.pdf" H 4200 4600 50  0001 C CNN
	1    4200 4600
	0    1    1    0   
$EndComp
Wire Wire Line
	3750 5100 4200 5100
Wire Wire Line
	4200 5100 4200 4750
Connection ~ 3750 5100
Wire Wire Line
	3750 5100 3750 5200
Wire Wire Line
	4200 4450 4200 4300
Wire Wire Line
	4200 4300 3750 4300
Connection ~ 3750 4300
Wire Wire Line
	3750 4300 3750 4150
Wire Wire Line
	3350 5700 6250 5700
Wire Wire Line
	2850 5800 5350 5800
Wire Wire Line
	2850 5800 2850 6050
Wire Wire Line
	5350 5800 5350 6050
$Comp
L 1n4001:1N4007 D1
U 1 1 626ECC1D
P 1550 6350
F 0 "D1" V 1504 6429 50  0000 L CNN
F 1 "1N4007" V 1595 6429 50  0000 L CNN
F 2 "Diode_THT:D_DO-41_SOD81_P10.16mm_Horizontal" H 1550 6175 50  0001 C CNN
F 3 "http://www.vishay.com/docs/88503/1n4001.pdf" H 1550 6350 50  0001 C CNN
	1    1550 6350
	0    1    1    0   
$EndComp
$Comp
L power:GNDD #PWR09
U 1 1 626ECDF3
P 3350 6850
F 0 "#PWR09" H 3350 6600 50  0001 C CNN
F 1 "GNDD" H 3350 6700 50  0000 C CNN
F 2 "" H 3350 6850 50  0001 C CNN
F 3 "" H 3350 6850 50  0001 C CNN
	1    3350 6850
	1    0    0    -1  
$EndComp
Wire Wire Line
	2150 6650 2150 6800
Wire Wire Line
	3350 6650 3350 6800
$Comp
L 1n4001:1N4007 D5
U 1 1 627103BF
P 3750 6200
F 0 "D5" V 3704 6279 50  0000 L CNN
F 1 "1N4007" V 3795 6279 50  0000 L CNN
F 2 "Diode_THT:D_DO-41_SOD81_P10.16mm_Horizontal" H 3750 6025 50  0001 C CNN
F 3 "http://www.vishay.com/docs/88503/1n4001.pdf" H 3750 6200 50  0001 C CNN
	1    3750 6200
	0    1    1    0   
$EndComp
Wire Wire Line
	1300 5900 1550 5900
Connection ~ 2150 5900
Text HLabel 1300 5800 0    50   Input ~ 0
AuxLow
Wire Wire Line
	1300 5800 2450 5800
Wire Wire Line
	3350 5700 1300 5700
Connection ~ 3350 5700
Wire Wire Line
	1550 6200 1550 5900
Connection ~ 1550 5900
Wire Wire Line
	1550 5900 2150 5900
Wire Wire Line
	1550 6500 1550 6800
Wire Wire Line
	1550 6800 2150 6800
Connection ~ 2150 6800
Wire Wire Line
	2150 6800 2150 6850
Wire Wire Line
	3350 6800 3750 6800
Wire Wire Line
	3750 6800 3750 6350
Connection ~ 3350 6800
Wire Wire Line
	3350 6800 3350 6850
Wire Wire Line
	3350 5850 3750 5850
Wire Wire Line
	3750 5850 3750 6050
Connection ~ 3350 5850
Wire Wire Line
	3350 5850 3350 6050
Wire Wire Line
	1350 4150 3750 4150
Wire Wire Line
	1300 4250 2850 4250
Wire Wire Line
	1250 4350 1950 4350
Wire Wire Line
	1450 2500 3750 2500
Wire Wire Line
	1400 2600 2850 2600
Wire Wire Line
	1400 2700 1900 2700
Wire Wire Line
	6250 5700 6250 6050
Wire Wire Line
	6900 2500 6900 2750
Wire Wire Line
	6950 4150 6950 4450
Wire Wire Line
	10300 5900 10300 6100
Wire Notes Line
	10000 5500 10600 5500
Wire Notes Line
	10000 6300 10000 5500
Wire Notes Line
	10600 6300 10000 6300
Wire Notes Line
	10600 5500 10600 6300
Text Notes 10050 5650 0    50   ~ 0
Tierra Digital
$Comp
L power:PWR_FLAG #FLG01
U 1 1 624D3FA4
P 10300 5900
F 0 "#FLG01" H 10300 5975 50  0001 C CNN
F 1 "PWR_FLAG" H 10300 6074 50  0000 C CNN
F 2 "" H 10300 5900 50  0001 C CNN
F 3 "~" H 10300 5900 50  0001 C CNN
	1    10300 5900
	1    0    0    -1  
$EndComp
$Comp
L power:GNDD #PWR021
U 1 1 624D3F0C
P 10300 6100
F 0 "#PWR021" H 10300 5850 50  0001 C CNN
F 1 "GNDD" H 10300 5950 50  0000 C CNN
F 2 "" H 10300 6100 50  0001 C CNN
F 3 "" H 10300 6100 50  0001 C CNN
	1    10300 6100
	1    0    0    -1  
$EndComp
Wire Wire Line
	6900 3350 6900 3450
Wire Wire Line
	5700 3350 5700 3450
Wire Wire Line
	2550 2700 5700 2700
Wire Wire Line
	2550 4350 5750 4350
Wire Wire Line
	5750 5050 5750 5200
Wire Wire Line
	6950 5050 6950 5200
Wire Wire Line
	2150 5900 5050 5900
Wire Wire Line
	5050 6650 5050 6850
Wire Wire Line
	6250 6650 6250 6850
Wire Wire Line
	6350 900  7850 900 
Wire Wire Line
	6850 1800 6850 1900
Wire Wire Line
	5650 1800 5650 1900
NoConn ~ 6550 1200
NoConn ~ 6150 1200
Wire Wire Line
	5650 1200 5650 1150
$Comp
L power:GNDD #PWR018
U 1 1 6253D073
P 6850 1900
F 0 "#PWR018" H 6850 1650 50  0001 C CNN
F 1 "GNDD" H 6850 1750 50  0000 C CNN
F 2 "" H 6850 1900 50  0001 C CNN
F 3 "" H 6850 1900 50  0001 C CNN
	1    6850 1900
	1    0    0    -1  
$EndComp
$Comp
L power:GNDD #PWR014
U 1 1 6253D046
P 5650 1900
F 0 "#PWR014" H 5650 1650 50  0001 C CNN
F 1 "GNDD" H 5650 1750 50  0000 C CNN
F 2 "" H 5650 1900 50  0001 C CNN
F 3 "" H 5650 1900 50  0001 C CNN
	1    5650 1900
	1    0    0    -1  
$EndComp
Wire Wire Line
	6450 1850 6450 1800
Wire Wire Line
	6050 1850 6450 1850
Wire Wire Line
	6050 1800 6050 1850
$Comp
L TX2-L2-5V:TX2-L2-5V K6
U 1 1 62419EE2
P 6250 1500
F 0 "K6" H 7080 1546 50  0000 L CNN
F 1 "TX2-L2-5V" H 7080 1455 50  0000 L CNN
F 2 "Multiplexor-DVM-Cal:TX2-L2-5V" H 6050 1500 50  0001 C CNN
F 3 "" H 6050 1500 50  0001 C CNN
	1    6250 1500
	1    0    0    -1  
$EndComp
Wire Wire Line
	5950 1250 5950 1350
Wire Wire Line
	3750 1100 3750 1200
Connection ~ 3750 1100
Wire Wire Line
	4150 1100 4150 1250
Wire Wire Line
	4150 1100 3750 1100
Wire Wire Line
	3750 950  3750 1100
Wire Wire Line
	3750 1850 3750 1900
Connection ~ 3750 1850
Wire Wire Line
	4150 1550 4150 1850
Wire Wire Line
	3750 1850 4150 1850
Wire Wire Line
	3750 1800 3750 1850
Connection ~ 2550 1850
Wire Wire Line
	2550 1850 2550 1900
$Comp
L 1n4001:1N4007 D6
U 1 1 624D8A96
P 4150 1400
F 0 "D6" V 4104 1479 50  0000 L CNN
F 1 "1N4007" V 4195 1479 50  0000 L CNN
F 2 "Diode_THT:D_DO-41_SOD81_P10.16mm_Horizontal" H 4150 1225 50  0001 C CNN
F 3 "http://www.vishay.com/docs/88503/1n4001.pdf" H 4150 1400 50  0001 C CNN
	1    4150 1400
	0    1    1    0   
$EndComp
Wire Wire Line
	1900 1650 1900 1850
Wire Wire Line
	1900 1150 2550 1150
Wire Wire Line
	1900 1350 1900 1150
$Comp
L 1n4001:1N4007 D2
U 1 1 624D1C84
P 1900 1500
F 0 "D2" V 1854 1579 50  0000 L CNN
F 1 "1N4007" V 1945 1579 50  0000 L CNN
F 2 "Diode_THT:D_DO-41_SOD81_P10.16mm_Horizontal" H 1900 1325 50  0001 C CNN
F 3 "http://www.vishay.com/docs/88503/1n4001.pdf" H 1900 1500 50  0001 C CNN
	1    1900 1500
	0    1    1    0   
$EndComp
Wire Wire Line
	1900 1850 2550 1850
NoConn ~ 3050 1200
NoConn ~ 3450 1200
Wire Wire Line
	2550 1150 2550 1200
Wire Wire Line
	2550 1800 2550 1850
$Comp
L power:GNDD #PWR010
U 1 1 6253D019
P 3750 1900
F 0 "#PWR010" H 3750 1650 50  0001 C CNN
F 1 "GNDD" H 3750 1750 50  0000 C CNN
F 2 "" H 3750 1900 50  0001 C CNN
F 3 "" H 3750 1900 50  0001 C CNN
	1    3750 1900
	1    0    0    -1  
$EndComp
$Comp
L power:GNDD #PWR06
U 1 1 6253CE70
P 2550 1900
F 0 "#PWR06" H 2550 1650 50  0001 C CNN
F 1 "GNDD" H 2550 1750 50  0000 C CNN
F 2 "" H 2550 1900 50  0001 C CNN
F 3 "" H 2550 1900 50  0001 C CNN
	1    2550 1900
	1    0    0    -1  
$EndComp
Wire Wire Line
	3350 1850 3350 1800
Wire Wire Line
	2950 1850 3350 1850
Wire Wire Line
	2950 1800 2950 1850
$Comp
L TX2-L2-5V:TX2-L2-5V K2
U 1 1 62419504
P 3150 1500
F 0 "K2" H 3980 1546 50  0000 L CNN
F 1 "TX2-L2-5V" H 3980 1455 50  0000 L CNN
F 2 "Multiplexor-DVM-Cal:TX2-L2-5V" H 2950 1500 50  0001 C CNN
F 3 "" H 2950 1500 50  0001 C CNN
	1    3150 1500
	1    0    0    -1  
$EndComp
Wire Wire Line
	3750 950  6850 950 
Connection ~ 3750 950 
Wire Wire Line
	1400 950  3750 950 
Connection ~ 1900 1150
Wire Wire Line
	1350 1150 1900 1150
Connection ~ 2550 1150
Wire Wire Line
	2550 1150 4150 1150
Wire Wire Line
	3250 1050 5950 1050
Wire Wire Line
	6850 950  6850 1200
Wire Wire Line
	4150 1150 5650 1150
Wire Wire Line
	6350 900  6350 1200
Wire Wire Line
	5950 1200 5950 1050
Wire Wire Line
	1400 1050 2850 1050
Wire Wire Line
	3250 1050 3250 1200
Wire Wire Line
	2850 1200 2850 1050
$EndSCHEMATC
