EESchema Schematic File Version 4
LIBS:Multiplexor-DVM-Cal-cache
EELAYER 26 0
EELAYER END
$Descr A4 11693 8268
encoding utf-8
Sheet 4 4
Title ""
Date ""
Rev ""
Comp ""
Comment1 ""
Comment2 ""
Comment3 ""
Comment4 ""
$EndDescr
Wire Wire Line
	2050 4750 2050 4900
Wire Wire Line
	3900 4900 3900 4750
Wire Wire Line
	1750 5550 1750 5500
Wire Wire Line
	2150 5550 1750 5550
Wire Wire Line
	2150 5500 2150 5550
$Comp
L TX2-L2-5V:TX2-L2-5V K?
U 1 1 6253CD51
P 1950 5200
AR Path="/621BA2C5/6253CD51" Ref="K?"  Part="1" 
AR Path="/6246F77A/6253CD51" Ref="K22"  Part="1" 
F 0 "K22" H 2780 5246 50  0000 L CNN
F 1 "TX2-L2-5V" H 2780 5155 50  0000 L CNN
F 2 "Multiplexor-DVM-Cal:TX2-L2-5V" H 1750 5200 50  0001 C CNN
F 3 "" H 1750 5200 50  0001 C CNN
	1    1950 5200
	1    0    0    -1  
$EndComp
$Comp
L TX2-L2-5V:TX2-L2-5V K?
U 1 1 6253CD58
P 4200 5200
AR Path="/621BA2C5/6253CD58" Ref="K?"  Part="1" 
AR Path="/6246F77A/6253CD58" Ref="K26"  Part="1" 
F 0 "K26" H 5030 5246 50  0000 L CNN
F 1 "TX2-L2-5V" H 5030 5155 50  0000 L CNN
F 2 "Multiplexor-DVM-Cal:TX2-L2-5V" H 4000 5200 50  0001 C CNN
F 3 "" H 4000 5200 50  0001 C CNN
	1    4200 5200
	1    0    0    -1  
$EndComp
Wire Wire Line
	1350 4900 1350 4850
Wire Wire Line
	2550 4700 2550 4800
$Comp
L power:GNDD #PWR?
U 1 1 6253CDB1
P 1350 5600
AR Path="/621BA2C5/6253CDB1" Ref="#PWR?"  Part="1" 
AR Path="/6246F77A/6253CDB1" Ref="#PWR051"  Part="1" 
F 0 "#PWR051" H 1350 5350 50  0001 C CNN
F 1 "GNDD" H 1350 5450 50  0000 C CNN
F 2 "" H 1350 5600 50  0001 C CNN
F 3 "" H 1350 5600 50  0001 C CNN
	1    1350 5600
	1    0    0    -1  
$EndComp
$Comp
L power:GNDD #PWR?
U 1 1 6253CDB8
P 2550 5600
AR Path="/621BA2C5/6253CDB8" Ref="#PWR?"  Part="1" 
AR Path="/6246F77A/6253CDB8" Ref="#PWR055"  Part="1" 
F 0 "#PWR055" H 2550 5350 50  0001 C CNN
F 1 "GNDD" H 2550 5450 50  0000 C CNN
F 2 "" H 2550 5600 50  0001 C CNN
F 3 "" H 2550 5600 50  0001 C CNN
	1    2550 5600
	1    0    0    -1  
$EndComp
$Comp
L power:GNDD #PWR?
U 1 1 6253CDBF
P 3600 5600
AR Path="/621BA2C5/6253CDBF" Ref="#PWR?"  Part="1" 
AR Path="/6246F77A/6253CDBF" Ref="#PWR057"  Part="1" 
F 0 "#PWR057" H 3600 5350 50  0001 C CNN
F 1 "GNDD" H 3600 5450 50  0000 C CNN
F 2 "" H 3600 5600 50  0001 C CNN
F 3 "" H 3600 5600 50  0001 C CNN
	1    3600 5600
	1    0    0    -1  
$EndComp
Wire Wire Line
	2050 4750 2850 4750
Connection ~ 1350 4850
Wire Wire Line
	1350 4850 1350 4550
Wire Wire Line
	3600 4850 3600 4900
Wire Wire Line
	2550 4700 4800 4700
$Comp
L TX2-L2-5V:TX2-L2-5V K?
U 1 1 6253CE2B
P 3050 4050
AR Path="/621BA2C5/6253CE2B" Ref="K?"  Part="1" 
AR Path="/6246F77A/6253CE2B" Ref="K24"  Part="1" 
F 0 "K24" H 3880 4096 50  0000 L CNN
F 1 "TX2-L2-5V" H 3880 4005 50  0000 L CNN
F 2 "Multiplexor-DVM-Cal:TX2-L2-5V" H 2850 4050 50  0001 C CNN
F 3 "" H 2850 4050 50  0001 C CNN
	1    3050 4050
	1    0    0    -1  
$EndComp
Text GLabel 4700 4450 2    50   Input ~ 0
Guard
Text GLabel 950  3700 0    50   Input ~ 0
SetGuard
NoConn ~ 2950 3750
$Comp
L power:GNDD #PWR?
U 1 1 6253CE47
P 2450 4450
AR Path="/621BA2C5/6253CE47" Ref="#PWR?"  Part="1" 
AR Path="/6246F77A/6253CE47" Ref="#PWR053"  Part="1" 
F 0 "#PWR053" H 2450 4200 50  0001 C CNN
F 1 "GNDD" H 2450 4300 50  0000 C CNN
F 2 "" H 2450 4450 50  0001 C CNN
F 3 "" H 2450 4450 50  0001 C CNN
	1    2450 4450
	1    0    0    -1  
$EndComp
$Comp
L power:GNDD #PWR?
U 1 1 6253CE4D
P 3650 4400
AR Path="/621BA2C5/6253CE4D" Ref="#PWR?"  Part="1" 
AR Path="/6246F77A/6253CE4D" Ref="#PWR058"  Part="1" 
F 0 "#PWR058" H 3650 4150 50  0001 C CNN
F 1 "GNDD" H 3650 4250 50  0000 C CNN
F 2 "" H 3650 4400 50  0001 C CNN
F 3 "" H 3650 4400 50  0001 C CNN
	1    3650 4400
	1    0    0    -1  
$EndComp
NoConn ~ 1850 4900
NoConn ~ 2250 4900
NoConn ~ 4100 4900
NoConn ~ 4500 4900
Text HLabel 1150 4450 0    50   Input ~ 0
SenseHigh
Wire Wire Line
	1650 4450 1650 4900
Wire Wire Line
	1250 4700 2550 4700
Connection ~ 2550 4700
Wire Wire Line
	4300 4650 4300 4900
Wire Wire Line
	3650 4400 3650 4350
Wire Wire Line
	3250 4350 3250 4600
Wire Wire Line
	2450 3750 2450 3700
Wire Wire Line
	3650 3750 3650 3700
Wire Wire Line
	4000 5500 4000 5550
Wire Wire Line
	4000 5550 4400 5550
Wire Wire Line
	4400 5550 4400 5500
$Comp
L power:GNDD #PWR?
U 1 1 6285AB16
P 4800 5600
AR Path="/621BA2C5/6285AB16" Ref="#PWR?"  Part="1" 
AR Path="/6246F77A/6285AB16" Ref="#PWR061"  Part="1" 
F 0 "#PWR061" H 4800 5350 50  0001 C CNN
F 1 "GNDD" H 4800 5450 50  0000 C CNN
F 2 "" H 4800 5600 50  0001 C CNN
F 3 "" H 4800 5600 50  0001 C CNN
	1    4800 5600
	1    0    0    -1  
$EndComp
Text Notes 1450 1150 0    50   Italic 10
Bloque 1
Text Notes 750  4000 0    50   Italic 10
Bloque 2\n
Wire Wire Line
	3250 4600 4450 4600
Wire Wire Line
	2850 4750 2850 4350
Connection ~ 2850 4750
Wire Wire Line
	2850 4750 3900 4750
Wire Wire Line
	4450 4600 4450 4450
Text HLabel 5050 4650 2    50   Input ~ 0
SenseLow
Wire Wire Line
	2150 1850 2150 2000
Wire Wire Line
	4000 2000 4000 1850
Wire Wire Line
	1850 2650 1850 2600
Wire Wire Line
	2250 2650 1850 2650
Wire Wire Line
	2250 2600 2250 2650
$Comp
L TX2-L2-5V:TX2-L2-5V K?
U 1 1 624E7499
P 2050 2300
AR Path="/621BA2C5/624E7499" Ref="K?"  Part="1" 
AR Path="/6246F77A/624E7499" Ref="K23"  Part="1" 
F 0 "K23" H 2880 2346 50  0000 L CNN
F 1 "TX2-L2-5V" H 2880 2255 50  0000 L CNN
F 2 "Multiplexor-DVM-Cal:TX2-L2-5V" H 1850 2300 50  0001 C CNN
F 3 "" H 1850 2300 50  0001 C CNN
	1    2050 2300
	1    0    0    -1  
$EndComp
$Comp
L TX2-L2-5V:TX2-L2-5V K?
U 1 1 624E749F
P 4300 2300
AR Path="/621BA2C5/624E749F" Ref="K?"  Part="1" 
AR Path="/6246F77A/624E749F" Ref="K27"  Part="1" 
F 0 "K27" H 5130 2346 50  0000 L CNN
F 1 "TX2-L2-5V" H 5130 2255 50  0000 L CNN
F 2 "Multiplexor-DVM-Cal:TX2-L2-5V" H 4100 2300 50  0001 C CNN
F 3 "" H 4100 2300 50  0001 C CNN
	1    4300 2300
	1    0    0    -1  
$EndComp
Wire Wire Line
	1450 2000 1450 1950
Wire Wire Line
	2650 1800 2650 1900
$Comp
L power:GNDD #PWR?
U 1 1 624E74A9
P 1450 2700
AR Path="/621BA2C5/624E74A9" Ref="#PWR?"  Part="1" 
AR Path="/6246F77A/624E74A9" Ref="#PWR052"  Part="1" 
F 0 "#PWR052" H 1450 2450 50  0001 C CNN
F 1 "GNDD" H 1450 2550 50  0000 C CNN
F 2 "" H 1450 2700 50  0001 C CNN
F 3 "" H 1450 2700 50  0001 C CNN
	1    1450 2700
	1    0    0    -1  
$EndComp
$Comp
L power:GNDD #PWR?
U 1 1 624E74AF
P 2650 2700
AR Path="/621BA2C5/624E74AF" Ref="#PWR?"  Part="1" 
AR Path="/6246F77A/624E74AF" Ref="#PWR056"  Part="1" 
F 0 "#PWR056" H 2650 2450 50  0001 C CNN
F 1 "GNDD" H 2650 2550 50  0000 C CNN
F 2 "" H 2650 2700 50  0001 C CNN
F 3 "" H 2650 2700 50  0001 C CNN
	1    2650 2700
	1    0    0    -1  
$EndComp
$Comp
L power:GNDD #PWR?
U 1 1 624E74B5
P 3700 2700
AR Path="/621BA2C5/624E74B5" Ref="#PWR?"  Part="1" 
AR Path="/6246F77A/624E74B5" Ref="#PWR059"  Part="1" 
F 0 "#PWR059" H 3700 2450 50  0001 C CNN
F 1 "GNDD" H 3700 2550 50  0000 C CNN
F 2 "" H 3700 2700 50  0001 C CNN
F 3 "" H 3700 2700 50  0001 C CNN
	1    3700 2700
	1    0    0    -1  
$EndComp
Wire Wire Line
	2150 1850 2950 1850
Connection ~ 1450 1950
Wire Wire Line
	1450 1950 1450 1650
Wire Wire Line
	3700 1950 3700 2000
Wire Wire Line
	2650 1800 4900 1800
$Comp
L TX2-L2-5V:TX2-L2-5V K?
U 1 1 624E74C0
P 3150 1150
AR Path="/621BA2C5/624E74C0" Ref="K?"  Part="1" 
AR Path="/6246F77A/624E74C0" Ref="K25"  Part="1" 
F 0 "K25" H 3980 1196 50  0000 L CNN
F 1 "TX2-L2-5V" H 3980 1105 50  0000 L CNN
F 2 "Multiplexor-DVM-Cal:TX2-L2-5V" H 2950 1150 50  0001 C CNN
F 3 "" H 2950 1150 50  0001 C CNN
	1    3150 1150
	1    0    0    -1  
$EndComp
Text GLabel 4800 1550 2    50   Input ~ 0
Guard
NoConn ~ 3050 850 
$Comp
L power:GNDD #PWR?
U 1 1 624E74CD
P 2550 1550
AR Path="/621BA2C5/624E74CD" Ref="#PWR?"  Part="1" 
AR Path="/6246F77A/624E74CD" Ref="#PWR054"  Part="1" 
F 0 "#PWR054" H 2550 1300 50  0001 C CNN
F 1 "GNDD" H 2550 1400 50  0000 C CNN
F 2 "" H 2550 1550 50  0001 C CNN
F 3 "" H 2550 1550 50  0001 C CNN
	1    2550 1550
	1    0    0    -1  
$EndComp
$Comp
L power:GNDD #PWR?
U 1 1 624E74D3
P 3750 1500
AR Path="/621BA2C5/624E74D3" Ref="#PWR?"  Part="1" 
AR Path="/6246F77A/624E74D3" Ref="#PWR060"  Part="1" 
F 0 "#PWR060" H 3750 1250 50  0001 C CNN
F 1 "GNDD" H 3750 1350 50  0000 C CNN
F 2 "" H 3750 1500 50  0001 C CNN
F 3 "" H 3750 1500 50  0001 C CNN
	1    3750 1500
	1    0    0    -1  
$EndComp
NoConn ~ 1950 2000
NoConn ~ 2350 2000
NoConn ~ 4200 2000
NoConn ~ 4600 2000
Text HLabel 1150 1550 0    50   Input ~ 0
InputHigh
Wire Wire Line
	1750 1550 1750 2000
Wire Wire Line
	1350 1800 2650 1800
Connection ~ 2650 1800
Wire Wire Line
	4400 1750 4400 2000
Wire Wire Line
	3750 1500 3750 1450
Wire Wire Line
	3350 1450 3350 1700
Wire Wire Line
	2550 850  2550 800 
Wire Wire Line
	4100 2600 4100 2650
Wire Wire Line
	4100 2650 4500 2650
Wire Wire Line
	4500 2650 4500 2600
$Comp
L power:GNDD #PWR?
U 1 1 624E74EE
P 4900 2700
AR Path="/621BA2C5/624E74EE" Ref="#PWR?"  Part="1" 
AR Path="/6246F77A/624E74EE" Ref="#PWR062"  Part="1" 
F 0 "#PWR062" H 4900 2450 50  0001 C CNN
F 1 "GNDD" H 4900 2550 50  0000 C CNN
F 2 "" H 4900 2700 50  0001 C CNN
F 3 "" H 4900 2700 50  0001 C CNN
	1    4900 2700
	1    0    0    -1  
$EndComp
Wire Wire Line
	2950 1850 2950 1450
Connection ~ 2950 1850
Wire Wire Line
	2950 1850 4000 1850
Wire Wire Line
	4700 1700 4700 1550
Wire Wire Line
	4700 1550 4800 1550
Wire Wire Line
	1300 1650 1450 1650
Text HLabel 5150 1700 2    50   Input ~ 0
InputLow
Wire Wire Line
	4400 1750 5100 1750
Wire Wire Line
	7300 1950 7300 2100
Wire Wire Line
	9150 2100 9150 1950
Wire Wire Line
	7000 2750 7000 2700
Wire Wire Line
	7400 2750 7000 2750
Wire Wire Line
	7400 2700 7400 2750
$Comp
L TX2-L2-5V:TX2-L2-5V K?
U 1 1 6253B121
P 7200 2400
AR Path="/621BA2C5/6253B121" Ref="K?"  Part="1" 
AR Path="/6246F77A/6253B121" Ref="K28"  Part="1" 
F 0 "K28" H 8030 2446 50  0000 L CNN
F 1 "TX2-L2-5V" H 8030 2355 50  0000 L CNN
F 2 "Multiplexor-DVM-Cal:TX2-L2-5V" H 7000 2400 50  0001 C CNN
F 3 "" H 7000 2400 50  0001 C CNN
	1    7200 2400
	1    0    0    -1  
$EndComp
$Comp
L TX2-L2-5V:TX2-L2-5V K?
U 1 1 6253B127
P 9450 2400
AR Path="/621BA2C5/6253B127" Ref="K?"  Part="1" 
AR Path="/6246F77A/6253B127" Ref="K32"  Part="1" 
F 0 "K32" H 10280 2446 50  0000 L CNN
F 1 "TX2-L2-5V" H 10280 2355 50  0000 L CNN
F 2 "Multiplexor-DVM-Cal:TX2-L2-5V" H 9250 2400 50  0001 C CNN
F 3 "" H 9250 2400 50  0001 C CNN
	1    9450 2400
	1    0    0    -1  
$EndComp
Wire Wire Line
	6600 2100 6600 2050
Wire Wire Line
	7800 1900 7800 2000
$Comp
L power:GNDD #PWR?
U 1 1 6253B131
P 6600 2800
AR Path="/621BA2C5/6253B131" Ref="#PWR?"  Part="1" 
AR Path="/6246F77A/6253B131" Ref="#PWR063"  Part="1" 
F 0 "#PWR063" H 6600 2550 50  0001 C CNN
F 1 "GNDD" H 6600 2650 50  0000 C CNN
F 2 "" H 6600 2800 50  0001 C CNN
F 3 "" H 6600 2800 50  0001 C CNN
	1    6600 2800
	1    0    0    -1  
$EndComp
$Comp
L power:GNDD #PWR?
U 1 1 6253B137
P 7800 2800
AR Path="/621BA2C5/6253B137" Ref="#PWR?"  Part="1" 
AR Path="/6246F77A/6253B137" Ref="#PWR066"  Part="1" 
F 0 "#PWR066" H 7800 2550 50  0001 C CNN
F 1 "GNDD" H 7800 2650 50  0000 C CNN
F 2 "" H 7800 2800 50  0001 C CNN
F 3 "" H 7800 2800 50  0001 C CNN
	1    7800 2800
	1    0    0    -1  
$EndComp
$Comp
L power:GNDD #PWR?
U 1 1 6253B13D
P 8850 2800
AR Path="/621BA2C5/6253B13D" Ref="#PWR?"  Part="1" 
AR Path="/6246F77A/6253B13D" Ref="#PWR069"  Part="1" 
F 0 "#PWR069" H 8850 2550 50  0001 C CNN
F 1 "GNDD" H 8850 2650 50  0000 C CNN
F 2 "" H 8850 2800 50  0001 C CNN
F 3 "" H 8850 2800 50  0001 C CNN
	1    8850 2800
	1    0    0    -1  
$EndComp
Wire Wire Line
	7300 1950 8100 1950
Connection ~ 6600 2050
Wire Wire Line
	8850 2050 8850 2100
Wire Wire Line
	7800 1900 10050 1900
$Comp
L TX2-L2-5V:TX2-L2-5V K?
U 1 1 6253B148
P 8300 1250
AR Path="/621BA2C5/6253B148" Ref="K?"  Part="1" 
AR Path="/6246F77A/6253B148" Ref="K30"  Part="1" 
F 0 "K30" H 9130 1296 50  0000 L CNN
F 1 "TX2-L2-5V" H 9130 1205 50  0000 L CNN
F 2 "Multiplexor-DVM-Cal:TX2-L2-5V" H 8100 1250 50  0001 C CNN
F 3 "" H 8100 1250 50  0001 C CNN
	1    8300 1250
	1    0    0    -1  
$EndComp
Text GLabel 10100 1650 2    50   Input ~ 0
Guard
Text GLabel 6250 900  0    50   Input ~ 0
SetGuard
Wire Wire Line
	8000 950  8000 850 
NoConn ~ 8200 950 
$Comp
L power:GNDD #PWR?
U 1 1 6253B155
P 7700 1650
AR Path="/621BA2C5/6253B155" Ref="#PWR?"  Part="1" 
AR Path="/6246F77A/6253B155" Ref="#PWR065"  Part="1" 
F 0 "#PWR065" H 7700 1400 50  0001 C CNN
F 1 "GNDD" H 7700 1500 50  0000 C CNN
F 2 "" H 7700 1650 50  0001 C CNN
F 3 "" H 7700 1650 50  0001 C CNN
	1    7700 1650
	1    0    0    -1  
$EndComp
$Comp
L power:GNDD #PWR?
U 1 1 6253B15B
P 8900 1600
AR Path="/621BA2C5/6253B15B" Ref="#PWR?"  Part="1" 
AR Path="/6246F77A/6253B15B" Ref="#PWR070"  Part="1" 
F 0 "#PWR070" H 8900 1350 50  0001 C CNN
F 1 "GNDD" H 8900 1450 50  0000 C CNN
F 2 "" H 8900 1600 50  0001 C CNN
F 3 "" H 8900 1600 50  0001 C CNN
	1    8900 1600
	1    0    0    -1  
$EndComp
NoConn ~ 7100 2100
NoConn ~ 7500 2100
NoConn ~ 9350 2100
NoConn ~ 9750 2100
Wire Wire Line
	10050 1900 10050 2100
Wire Wire Line
	10600 1850 9550 1850
Wire Wire Line
	9550 1850 9550 2100
Wire Wire Line
	8900 1600 8900 1550
Wire Wire Line
	8500 1550 8500 1800
Text GLabel 10050 900  2    50   Input ~ 0
ResetGuard
Wire Wire Line
	7700 950  7700 900 
Wire Wire Line
	8900 950  8900 900 
Wire Wire Line
	9250 2700 9250 2750
Wire Wire Line
	9250 2750 9650 2750
Wire Wire Line
	9650 2750 9650 2700
$Comp
L power:GNDD #PWR?
U 1 1 6253B176
P 10050 2800
AR Path="/621BA2C5/6253B176" Ref="#PWR?"  Part="1" 
AR Path="/6246F77A/6253B176" Ref="#PWR073"  Part="1" 
F 0 "#PWR073" H 10050 2550 50  0001 C CNN
F 1 "GNDD" H 10050 2650 50  0000 C CNN
F 2 "" H 10050 2800 50  0001 C CNN
F 3 "" H 10050 2800 50  0001 C CNN
	1    10050 2800
	1    0    0    -1  
$EndComp
Text Notes 6250 1200 0    50   Italic 10
Bloque 3\n
Wire Wire Line
	8500 1800 9700 1800
Wire Wire Line
	8100 1950 8100 1550
Connection ~ 8100 1950
Wire Wire Line
	8100 1950 9150 1950
Wire Wire Line
	9700 1800 9700 1650
Text HLabel 10600 1850 2    50   Input ~ 0
SenseLow
Wire Wire Line
	7500 4750 7500 4900
Wire Wire Line
	9350 4900 9350 4750
Wire Wire Line
	7200 5550 7200 5500
Wire Wire Line
	7600 5550 7200 5550
Wire Wire Line
	7600 5500 7600 5550
$Comp
L TX2-L2-5V:TX2-L2-5V K?
U 1 1 6256DB04
P 7400 5200
AR Path="/621BA2C5/6256DB04" Ref="K?"  Part="1" 
AR Path="/6246F77A/6256DB04" Ref="K29"  Part="1" 
F 0 "K29" H 8230 5246 50  0000 L CNN
F 1 "TX2-L2-5V" H 8230 5155 50  0000 L CNN
F 2 "Multiplexor-DVM-Cal:TX2-L2-5V" H 7200 5200 50  0001 C CNN
F 3 "" H 7200 5200 50  0001 C CNN
	1    7400 5200
	1    0    0    -1  
$EndComp
$Comp
L TX2-L2-5V:TX2-L2-5V K?
U 1 1 6256DB0A
P 9650 5200
AR Path="/621BA2C5/6256DB0A" Ref="K?"  Part="1" 
AR Path="/6246F77A/6256DB0A" Ref="K33"  Part="1" 
F 0 "K33" H 10480 5246 50  0000 L CNN
F 1 "TX2-L2-5V" H 10480 5155 50  0000 L CNN
F 2 "Multiplexor-DVM-Cal:TX2-L2-5V" H 9450 5200 50  0001 C CNN
F 3 "" H 9450 5200 50  0001 C CNN
	1    9650 5200
	1    0    0    -1  
$EndComp
Wire Wire Line
	6800 4900 6800 4850
Wire Wire Line
	8000 4700 8000 4800
$Comp
L power:GNDD #PWR?
U 1 1 6256DB14
P 6800 5600
AR Path="/621BA2C5/6256DB14" Ref="#PWR?"  Part="1" 
AR Path="/6246F77A/6256DB14" Ref="#PWR064"  Part="1" 
F 0 "#PWR064" H 6800 5350 50  0001 C CNN
F 1 "GNDD" H 6800 5450 50  0000 C CNN
F 2 "" H 6800 5600 50  0001 C CNN
F 3 "" H 6800 5600 50  0001 C CNN
	1    6800 5600
	1    0    0    -1  
$EndComp
$Comp
L power:GNDD #PWR?
U 1 1 6256DB1A
P 8000 5600
AR Path="/621BA2C5/6256DB1A" Ref="#PWR?"  Part="1" 
AR Path="/6246F77A/6256DB1A" Ref="#PWR068"  Part="1" 
F 0 "#PWR068" H 8000 5350 50  0001 C CNN
F 1 "GNDD" H 8000 5450 50  0000 C CNN
F 2 "" H 8000 5600 50  0001 C CNN
F 3 "" H 8000 5600 50  0001 C CNN
	1    8000 5600
	1    0    0    -1  
$EndComp
$Comp
L power:GNDD #PWR?
U 1 1 6256DB20
P 9050 5600
AR Path="/621BA2C5/6256DB20" Ref="#PWR?"  Part="1" 
AR Path="/6246F77A/6256DB20" Ref="#PWR071"  Part="1" 
F 0 "#PWR071" H 9050 5350 50  0001 C CNN
F 1 "GNDD" H 9050 5450 50  0000 C CNN
F 2 "" H 9050 5600 50  0001 C CNN
F 3 "" H 9050 5600 50  0001 C CNN
	1    9050 5600
	1    0    0    -1  
$EndComp
Wire Wire Line
	7500 4750 8300 4750
Connection ~ 6800 4850
Wire Wire Line
	6800 4850 6800 4600
Wire Wire Line
	9050 4850 9050 4900
Wire Wire Line
	8000 4700 10250 4700
$Comp
L TX2-L2-5V:TX2-L2-5V K?
U 1 1 6256DB2B
P 8500 4050
AR Path="/621BA2C5/6256DB2B" Ref="K?"  Part="1" 
AR Path="/6246F77A/6256DB2B" Ref="K31"  Part="1" 
F 0 "K31" H 9330 4096 50  0000 L CNN
F 1 "TX2-L2-5V" H 9330 4005 50  0000 L CNN
F 2 "Multiplexor-DVM-Cal:TX2-L2-5V" H 8300 4050 50  0001 C CNN
F 3 "" H 8300 4050 50  0001 C CNN
	1    8500 4050
	1    0    0    -1  
$EndComp
Text GLabel 10250 4450 2    50   Input ~ 0
Guard
Text GLabel 6450 3700 0    50   Input ~ 0
SetGuard
Wire Wire Line
	8200 3750 8200 3650
NoConn ~ 8400 3750
$Comp
L power:GNDD #PWR?
U 1 1 6256DB38
P 7900 4450
AR Path="/621BA2C5/6256DB38" Ref="#PWR?"  Part="1" 
AR Path="/6246F77A/6256DB38" Ref="#PWR067"  Part="1" 
F 0 "#PWR067" H 7900 4200 50  0001 C CNN
F 1 "GNDD" H 7900 4300 50  0000 C CNN
F 2 "" H 7900 4450 50  0001 C CNN
F 3 "" H 7900 4450 50  0001 C CNN
	1    7900 4450
	1    0    0    -1  
$EndComp
$Comp
L power:GNDD #PWR?
U 1 1 6256DB3E
P 9100 4400
AR Path="/621BA2C5/6256DB3E" Ref="#PWR?"  Part="1" 
AR Path="/6246F77A/6256DB3E" Ref="#PWR072"  Part="1" 
F 0 "#PWR072" H 9100 4150 50  0001 C CNN
F 1 "GNDD" H 9100 4250 50  0000 C CNN
F 2 "" H 9100 4400 50  0001 C CNN
F 3 "" H 9100 4400 50  0001 C CNN
	1    9100 4400
	1    0    0    -1  
$EndComp
NoConn ~ 7300 4900
NoConn ~ 7700 4900
NoConn ~ 9550 4900
NoConn ~ 9950 4900
Text HLabel 6450 4500 0    50   Input ~ 0
InputHigh
Connection ~ 8000 4700
Wire Wire Line
	10250 4700 10250 4900
Wire Wire Line
	9750 4650 9750 4900
Wire Wire Line
	9100 4400 9100 4350
Text GLabel 10250 3700 2    50   Input ~ 0
ResetGuard
Wire Wire Line
	7900 3750 7900 3700
Wire Wire Line
	9100 3750 9100 3700
Wire Wire Line
	9450 5500 9450 5550
Wire Wire Line
	9450 5550 9850 5550
Wire Wire Line
	9850 5550 9850 5500
$Comp
L power:GNDD #PWR?
U 1 1 6256DB59
P 10250 5600
AR Path="/621BA2C5/6256DB59" Ref="#PWR?"  Part="1" 
AR Path="/6246F77A/6256DB59" Ref="#PWR074"  Part="1" 
F 0 "#PWR074" H 10250 5350 50  0001 C CNN
F 1 "GNDD" H 10250 5450 50  0000 C CNN
F 2 "" H 10250 5600 50  0001 C CNN
F 3 "" H 10250 5600 50  0001 C CNN
	1    10250 5600
	1    0    0    -1  
$EndComp
Wire Wire Line
	6800 5550 6800 5500
Wire Wire Line
	8300 4750 8300 4350
Connection ~ 8300 4750
Wire Wire Line
	8300 4750 9350 4750
Text HLabel 10650 4650 2    50   Input ~ 0
SenseHigh
Wire Wire Line
	9750 4650 10650 4650
Wire Wire Line
	4300 4650 5050 4650
Wire Wire Line
	1150 4550 1350 4550
Text HLabel 6200 1700 0    50   Input ~ 0
InputLow
Wire Notes Line
	5650 3450 500  3450
Wire Notes Line
	5600 650  550  650 
Wire Notes Line
	5700 650  11100 650 
Wire Wire Line
	2550 800  1900 800 
Wire Wire Line
	3250 850  3250 750 
Wire Wire Line
	3250 750  2850 750 
Wire Wire Line
	2850 850  2850 750 
Wire Wire Line
	8400 950  8400 850 
Wire Wire Line
	8400 850  8000 850 
Wire Wire Line
	3150 3750 3150 3600
Wire Wire Line
	3150 3600 2750 3600
Wire Wire Line
	2750 3600 2750 3750
Text Notes 6200 4000 0    50   Italic 10
Bloque 4\n\n
Wire Wire Line
	8200 3650 8600 3650
Wire Wire Line
	8600 3650 8600 3750
NoConn ~ 8800 3750
NoConn ~ 3350 3750
NoConn ~ 3450 850 
NoConn ~ 8600 950 
Text HLabel 1050 800  0    50   Input ~ 0
SetGuard
Text HLabel 1150 700  0    50   Input ~ 0
ResetGuard
Wire Wire Line
	3750 700  1150 700 
Text GLabel 1650 900  0    50   Input ~ 0
SetGuard
Wire Wire Line
	1650 900  1800 900 
Wire Wire Line
	1800 900  1800 800 
Connection ~ 1800 800 
Wire Wire Line
	1800 800  1050 800 
Text GLabel 4350 700  2    50   Input ~ 0
ResetGuard
Wire Wire Line
	4350 700  3750 700 
Connection ~ 3750 700 
Text HLabel 1300 1650 0    50   Input ~ 0
SetZeroInput
Text HLabel 1350 1800 0    50   Input ~ 0
ResetZeroInput
Text HLabel 1150 4550 0    50   Input ~ 0
SetZeroSense
Text HLabel 1250 4700 0    50   Input ~ 0
ResetZeroSense
Text HLabel 6300 1800 0    50   Input ~ 0
SetZeroLow
Wire Wire Line
	6300 1800 6600 1800
Text HLabel 6350 1900 0    50   Input ~ 0
ResetZeroLow
Text HLabel 4800 1400 2    50   Input ~ 0
Guard
Wire Wire Line
	4800 1400 4700 1400
Wire Wire Line
	4700 1400 4700 1550
Connection ~ 4700 1550
$Comp
L 1n4001:1N4007 D30
U 1 1 6283A57B
P 1900 1200
F 0 "D30" V 1854 1279 50  0000 L CNN
F 1 "1N4007" V 1945 1279 50  0000 L CNN
F 2 "Diode_THT:D_DO-41_SOD81_P10.16mm_Horizontal" H 1900 1025 50  0001 C CNN
F 3 "http://www.vishay.com/docs/88503/1n4001.pdf" H 1900 1200 50  0001 C CNN
	1    1900 1200
	0    1    1    0   
$EndComp
Wire Wire Line
	2550 1450 2550 1500
Wire Wire Line
	1900 1350 1900 1500
Wire Wire Line
	1900 1500 2550 1500
Connection ~ 2550 1500
Wire Wire Line
	2550 1500 2550 1550
Wire Wire Line
	1900 1050 1900 800 
Connection ~ 1900 800 
Wire Wire Line
	1900 800  1800 800 
$Comp
L 1n4001:1N4007 D33
U 1 1 62853C0A
P 4550 1100
F 0 "D33" V 4504 1179 50  0000 L CNN
F 1 "1N4007" V 4595 1179 50  0000 L CNN
F 2 "Diode_THT:D_DO-41_SOD81_P10.16mm_Horizontal" H 4550 925 50  0001 C CNN
F 3 "http://www.vishay.com/docs/88503/1n4001.pdf" H 4550 1100 50  0001 C CNN
	1    4550 1100
	0    1    1    0   
$EndComp
Wire Wire Line
	4550 800  4550 950 
Connection ~ 3750 1500
$Comp
L 1n4001:1N4007 D29
U 1 1 6288DA5E
P 800 2250
F 0 "D29" V 754 2329 50  0000 L CNN
F 1 "1N4007" V 845 2329 50  0000 L CNN
F 2 "Diode_THT:D_DO-41_SOD81_P10.16mm_Horizontal" H 800 2075 50  0001 C CNN
F 3 "http://www.vishay.com/docs/88503/1n4001.pdf" H 800 2250 50  0001 C CNN
	1    800  2250
	0    1    1    0   
$EndComp
Wire Wire Line
	1450 2600 1450 2650
Wire Wire Line
	2650 2600 2650 2650
Wire Wire Line
	800  1950 800  2100
Wire Wire Line
	800  2400 800  2650
Wire Wire Line
	800  2650 1450 2650
Connection ~ 1450 2650
Wire Wire Line
	1450 2650 1450 2700
$Comp
L 1n4001:1N4007 D32
U 1 1 628B7627
P 3100 2150
F 0 "D32" V 3054 2229 50  0000 L CNN
F 1 "1N4007" V 3145 2229 50  0000 L CNN
F 2 "Diode_THT:D_DO-41_SOD81_P10.16mm_Horizontal" H 3100 1975 50  0001 C CNN
F 3 "http://www.vishay.com/docs/88503/1n4001.pdf" H 3100 2150 50  0001 C CNN
	1    3100 2150
	0    1    1    0   
$EndComp
Wire Wire Line
	3100 2000 3100 1900
Wire Wire Line
	3100 1900 2650 1900
Connection ~ 2650 1900
Wire Wire Line
	2650 1900 2650 2000
Wire Wire Line
	2650 2650 3100 2650
Wire Wire Line
	3100 2650 3100 2300
Connection ~ 2650 2650
Wire Wire Line
	2650 2650 2650 2700
$Comp
L 1n4001:1N4007 D36
U 1 1 62971643
P 8250 2250
F 0 "D36" V 8204 2329 50  0000 L CNN
F 1 "1N4007" V 8295 2329 50  0000 L CNN
F 2 "Diode_THT:D_DO-41_SOD81_P10.16mm_Horizontal" H 8250 2075 50  0001 C CNN
F 3 "http://www.vishay.com/docs/88503/1n4001.pdf" H 8250 2250 50  0001 C CNN
	1    8250 2250
	0    1    1    0   
$EndComp
Wire Wire Line
	8250 2100 8250 2000
Wire Wire Line
	8250 2000 7800 2000
Connection ~ 7800 2000
Wire Wire Line
	7800 2000 7800 2100
Wire Wire Line
	7800 2700 7800 2750
Wire Wire Line
	7800 2750 8250 2750
Wire Wire Line
	8250 2750 8250 2400
Connection ~ 7800 2750
Wire Wire Line
	7800 2750 7800 2800
$Comp
L 1n4001:1N4007 D34
U 1 1 6299E05F
P 5950 2350
F 0 "D34" V 5904 2429 50  0000 L CNN
F 1 "1N4007" V 5995 2429 50  0000 L CNN
F 2 "Diode_THT:D_DO-41_SOD81_P10.16mm_Horizontal" H 5950 2175 50  0001 C CNN
F 3 "http://www.vishay.com/docs/88503/1n4001.pdf" H 5950 2350 50  0001 C CNN
	1    5950 2350
	0    1    1    0   
$EndComp
Wire Wire Line
	6600 2700 6600 2750
Wire Wire Line
	5950 2500 5950 2750
Wire Wire Line
	5950 2750 6600 2750
Connection ~ 6600 2750
Wire Wire Line
	6600 2750 6600 2800
Wire Wire Line
	6600 2050 5950 2050
Wire Wire Line
	5950 2050 5950 2200
$Comp
L 1n4001:1N4007 D28
U 1 1 62A66167
P 700 5150
F 0 "D28" V 654 5229 50  0000 L CNN
F 1 "1N4007" V 745 5229 50  0000 L CNN
F 2 "Diode_THT:D_DO-41_SOD81_P10.16mm_Horizontal" H 700 4975 50  0001 C CNN
F 3 "http://www.vishay.com/docs/88503/1n4001.pdf" H 700 5150 50  0001 C CNN
	1    700  5150
	0    1    1    0   
$EndComp
Wire Wire Line
	1350 5500 1350 5550
Wire Wire Line
	2550 5500 2550 5550
Wire Wire Line
	1350 4850 700  4850
Wire Wire Line
	700  4850 700  5000
Wire Wire Line
	700  5300 700  5550
Wire Wire Line
	700  5550 1350 5550
Connection ~ 1350 5550
Wire Wire Line
	1350 5550 1350 5600
Wire Wire Line
	1150 4450 1650 4450
$Comp
L 1n4001:1N4007 D31
U 1 1 62AC646E
P 2950 5050
F 0 "D31" V 2904 5129 50  0000 L CNN
F 1 "1N4007" V 2995 5129 50  0000 L CNN
F 2 "Diode_THT:D_DO-41_SOD81_P10.16mm_Horizontal" H 2950 4875 50  0001 C CNN
F 3 "http://www.vishay.com/docs/88503/1n4001.pdf" H 2950 5050 50  0001 C CNN
	1    2950 5050
	0    1    1    0   
$EndComp
Wire Wire Line
	2550 4800 2950 4800
Wire Wire Line
	2950 4800 2950 4900
Connection ~ 2550 4800
Wire Wire Line
	2550 4800 2550 4900
Wire Wire Line
	2950 5200 2950 5550
Wire Wire Line
	2950 5550 2550 5550
Connection ~ 2550 5550
Wire Wire Line
	2550 5550 2550 5600
Wire Wire Line
	4800 4700 4800 4900
$Comp
L 1n4001:1N4007 D35
U 1 1 62C37DAA
P 6050 5200
F 0 "D35" V 6004 5279 50  0000 L CNN
F 1 "1N4007" V 6095 5279 50  0000 L CNN
F 2 "Diode_THT:D_DO-41_SOD81_P10.16mm_Horizontal" H 6050 5025 50  0001 C CNN
F 3 "http://www.vishay.com/docs/88503/1n4001.pdf" H 6050 5200 50  0001 C CNN
	1    6050 5200
	0    1    1    0   
$EndComp
Wire Wire Line
	800  1950 1450 1950
Wire Wire Line
	1150 1550 1750 1550
Wire Wire Line
	6800 4850 6050 4850
Wire Wire Line
	6050 4850 6050 5050
Wire Wire Line
	6050 5350 6050 5550
Wire Wire Line
	6050 5550 6800 5550
$Comp
L 1n4001:1N4007 D37
U 1 1 62C9D452
P 8400 5050
F 0 "D37" V 8354 5129 50  0000 L CNN
F 1 "1N4007" V 8445 5129 50  0000 L CNN
F 2 "Diode_THT:D_DO-41_SOD81_P10.16mm_Horizontal" H 8400 4875 50  0001 C CNN
F 3 "http://www.vishay.com/docs/88503/1n4001.pdf" H 8400 5050 50  0001 C CNN
	1    8400 5050
	0    1    1    0   
$EndComp
Wire Wire Line
	8400 4900 8400 4800
Wire Wire Line
	8400 4800 8000 4800
Connection ~ 8000 4800
Wire Wire Line
	8000 4800 8000 4900
Wire Wire Line
	6800 5600 6800 5550
Connection ~ 6800 5550
Wire Wire Line
	8000 5500 8000 5550
Wire Wire Line
	8400 5200 8400 5550
Wire Wire Line
	8400 5550 8000 5550
Connection ~ 8000 5550
Wire Wire Line
	8000 5550 8000 5600
Wire Wire Line
	4900 1800 4900 2000
Wire Wire Line
	5150 1700 5100 1700
Wire Wire Line
	5100 1700 5100 1750
Wire Wire Line
	3350 1700 4700 1700
Wire Wire Line
	4550 1250 4550 1500
Wire Wire Line
	3750 1500 4550 1500
Wire Wire Line
	4450 4450 4700 4450
Wire Notes Line
	500  6250 5650 6250
Wire Notes Line
	500  3450 500  6250
Wire Notes Line
	5650 3450 5650 6250
Wire Wire Line
	9700 1650 10100 1650
Wire Notes Line
	550  3250 5600 3250
Wire Notes Line
	5600 650  5600 3250
Wire Notes Line
	550  650  550  3250
Wire Notes Line
	5700 3350 11100 3350
Wire Notes Line
	5700 650  5700 3350
Wire Notes Line
	11100 650  11100 3350
Wire Notes Line
	5800 3450 5800 6400
Wire Notes Line
	11150 6400 11150 3450
Wire Notes Line
	5800 3450 11150 3450
Wire Notes Line
	5800 6400 11150 6400
Wire Wire Line
	8700 4650 9700 4650
Wire Wire Line
	9700 4650 9700 4450
Wire Wire Line
	9700 4450 10250 4450
Wire Wire Line
	8700 4350 8700 4650
Wire Wire Line
	6600 1800 6600 2050
Wire Wire Line
	6350 1900 7800 1900
Connection ~ 7800 1900
Text HLabel 6650 4700 0    50   Input ~ 0
ResetZeroHigh
Text HLabel 6550 4600 0    50   Input ~ 0
SetZeroHigh
Wire Wire Line
	6650 4700 8000 4700
Wire Wire Line
	6550 4600 6800 4600
Wire Wire Line
	6450 4500 7100 4500
Wire Wire Line
	7100 4500 7100 4900
Wire Wire Line
	6200 1700 6900 1700
Wire Wire Line
	6900 1700 6900 2100
Text GLabel 4650 3700 2    50   Input ~ 0
ResetGuard
Wire Wire Line
	1450 1950 3700 1950
Wire Wire Line
	6600 2050 8850 2050
Wire Wire Line
	6800 4850 9050 4850
Wire Wire Line
	9050 5500 9050 5600
Wire Wire Line
	10250 5600 10250 5500
Wire Wire Line
	3700 2600 3700 2700
Wire Wire Line
	4900 2600 4900 2700
Wire Wire Line
	10050 2800 10050 2700
Wire Wire Line
	8850 2700 8850 2800
Wire Wire Line
	1350 4850 3600 4850
Wire Wire Line
	3600 5500 3600 5600
Wire Wire Line
	4800 5500 4800 5600
Wire Wire Line
	3750 800  3750 850 
Wire Wire Line
	3750 700  3750 800 
Connection ~ 3750 800 
Wire Wire Line
	3750 800  4550 800 
Wire Wire Line
	3650 3700 4650 3700
Wire Wire Line
	2450 4350 2450 4450
Wire Wire Line
	950  3700 2450 3700
Wire Wire Line
	7900 4350 7900 4450
Wire Wire Line
	6450 3700 7900 3700
Wire Wire Line
	9100 3700 10250 3700
Wire Wire Line
	8900 900  10050 900 
Wire Wire Line
	7700 1550 7700 1650
Wire Wire Line
	6250 900  7700 900 
$EndSCHEMATC
